--- Start BURT header
Time:      Fri Jun 11 07:35:42 2021
Login ID: controls ()
Eff  UID: 1001 
Group ID: 1001 
Keywords:
Comments:
Type:     Absolute  
Directory: /opt/rtcds/kamioka/k1/target/k1vispr3p/k1vispr3pepics/burt/
Req File: autoBurt.req 
--- End BURT header
K1:FEC-51_BURT_RESTORE 1 1.000000000000000e+00 1
K1:VIS-PR3_BIO_IMB_CTENABLE 1 0.000000000000000e+00 1
K1:VIS-PR3_BIO_IMB_MSDELAYOFF 1 0.000000000000000e+00 1
K1:VIS-PR3_BIO_IMB_MSDELAYON 1 0.000000000000000e+00 1
K1:VIS-PR3_BIO_IMB_STATEREQ 1 0.000000000000000e+00 1
K1:VIS-PR3_BIO_IMH_CTENABLE 1 0.000000000000000e+00 1
K1:VIS-PR3_BIO_IMH_MSDELAYOFF 1 0.000000000000000e+00 1
K1:VIS-PR3_BIO_IMH_MSDELAYON 1 0.000000000000000e+00 1
K1:VIS-PR3_BIO_IMH_STATEREQ 1 0.000000000000000e+00 1
K1:VIS-PR3_BIO_IMV_CTENABLE 1 0.000000000000000e+00 1
K1:VIS-PR3_BIO_IMV_MSDELAYOFF 1 0.000000000000000e+00 1
K1:VIS-PR3_BIO_IMV_MSDELAYON 1 0.000000000000000e+00 1
K1:VIS-PR3_BIO_IMV_STATEREQ 1 0.000000000000000e+00 1
K1:VIS-PR3_BIO_MNH_CTENABLE 1 0.000000000000000e+00 1
K1:VIS-PR3_BIO_MNH_MSDELAYOFF 1 0.000000000000000e+00 1
K1:VIS-PR3_BIO_MNH_MSDELAYON 1 0.000000000000000e+00 1
K1:VIS-PR3_BIO_MNH_STATEREQ 1 0.000000000000000e+00 1
K1:VIS-PR3_BIO_MNV_CTENABLE 1 0.000000000000000e+00 1
K1:VIS-PR3_BIO_MNV_MSDELAYOFF 1 0.000000000000000e+00 1
K1:VIS-PR3_BIO_MNV_MSDELAYON 1 0.000000000000000e+00 1
K1:VIS-PR3_BIO_MNV_STATEREQ 1 0.000000000000000e+00 1
K1:VIS-PR3_BIO_TM_CTENABLE 1 0.000000000000000e+00 1
K1:VIS-PR3_BIO_TM_MSDELAYOFF 1 0.000000000000000e+00 1
K1:VIS-PR3_BIO_TM_MSDELAYON 1 0.000000000000000e+00 1
K1:VIS-PR3_BIO_TM_STATEREQ 1 0.000000000000000e+00 1
K1:VIS-PR3_DITHERINF_P_GAIN 1 1.000000000000000e+00 1
K1:VIS-PR3_DITHERINF_P_LIMIT 1 0.000000000000000e+00 1
K1:VIS-PR3_DITHERINF_P_OFFSET 1 0.000000000000000e+00 1
K1:VIS-PR3_DITHERINF_P_SW1S 1 4.000000000000000e+00 0xffffffff
K1:VIS-PR3_DITHERINF_P_SW2S 1 1.536000000000000e+03 0xffffffff
K1:VIS-PR3_DITHERINF_P_TRAMP 1 0.000000000000000e+00 1
K1:VIS-PR3_DITHERINF_Y_GAIN 1 1.000000000000000e+00 1
K1:VIS-PR3_DITHERINF_Y_LIMIT 1 0.000000000000000e+00 1
K1:VIS-PR3_DITHERINF_Y_OFFSET 1 0.000000000000000e+00 1
K1:VIS-PR3_DITHERINF_Y_SW1S 1 4.000000000000000e+00 0xffffffff
K1:VIS-PR3_DITHERINF_Y_SW2S 1 1.536000000000000e+03 0xffffffff
K1:VIS-PR3_DITHERINF_Y_TRAMP 1 0.000000000000000e+00 1
K1:VIS-PR3_DITHERP2EUL_1_1 1 0.000000000000000e+00 1
K1:VIS-PR3_DITHERP2EUL_2_1 1 0.000000000000000e+00 1
K1:VIS-PR3_DITHERY2EUL_1_1 1 0.000000000000000e+00 1
K1:VIS-PR3_DITHERY2EUL_2_1 1 0.000000000000000e+00 1
K1:VIS-PR3_GUARD_CADENCE 1 0.000000000000000e+00 1
K1:VIS-PR3_GUARD_CRC 1 0.000000000000000e+00 1
K1:VIS-PR3_GUARD_PID 1 0.000000000000000e+00 1
K1:VIS-PR3_GUARD_STATUS 1 0.000000000000000e+00 1
K1:VIS-PR3_GUARD_SUBPID 1 0.000000000000000e+00 1
K1:VIS-PR3_IM_CAL_LINE_CLKGAIN 1 0.000000000000000e+00 1
K1:VIS-PR3_IM_CAL_LINE_COSGAIN 1 0.000000000000000e+00 1
K1:VIS-PR3_IM_CAL_LINE_FREQ 1 0.000000000000000e+00 1
K1:VIS-PR3_IM_CAL_LINE_SINGAIN 1 0.000000000000000e+00 1
K1:VIS-PR3_IM_CAL_LINE_TRAMP 1 0.000000000000000e+00 1
K1:VIS-PR3_IM_COILOUTF_H1_GAIN 1 -1.000000000000000e+00 1
K1:VIS-PR3_IM_COILOUTF_H1_LIMIT 1 1.000000000000000e+04 1
K1:VIS-PR3_IM_COILOUTF_H1_OFFSET 1 1.000000000000000e+03 1
K1:VIS-PR3_IM_COILOUTF_H1_SW1S 1 1.672400000000000e+04 0xffffffff
K1:VIS-PR3_IM_COILOUTF_H1_SW2S 1 1.541000000000000e+03 0xffffffff
K1:VIS-PR3_IM_COILOUTF_H1_TRAMP 1 2.000000000000000e+01 1
K1:VIS-PR3_IM_COILOUTF_H2_GAIN 1 -1.000000000000000e+00 1
K1:VIS-PR3_IM_COILOUTF_H2_LIMIT 1 1.000000000000000e+04 1
K1:VIS-PR3_IM_COILOUTF_H2_OFFSET 1 1.000000000000000e+03 1
K1:VIS-PR3_IM_COILOUTF_H2_SW1S 1 1.672400000000000e+04 0xffffffff
K1:VIS-PR3_IM_COILOUTF_H2_SW2S 1 1.541000000000000e+03 0xffffffff
K1:VIS-PR3_IM_COILOUTF_H2_TRAMP 1 3.000000000000000e+00 1
K1:VIS-PR3_IM_COILOUTF_H3_GAIN 1 -1.000000000000000e+00 1
K1:VIS-PR3_IM_COILOUTF_H3_LIMIT 1 1.000000000000000e+04 1
K1:VIS-PR3_IM_COILOUTF_H3_OFFSET 1 3.000000000000000e+02 1
K1:VIS-PR3_IM_COILOUTF_H3_SW1S 1 1.672400000000000e+04 0xffffffff
K1:VIS-PR3_IM_COILOUTF_H3_SW2S 1 1.541000000000000e+03 0xffffffff
K1:VIS-PR3_IM_COILOUTF_H3_TRAMP 1 2.000000000000000e+01 1
K1:VIS-PR3_IM_COILOUTF_V1_GAIN 1 1.000000000000000e+00 1
K1:VIS-PR3_IM_COILOUTF_V1_LIMIT 1 1.000000000000000e+04 1
K1:VIS-PR3_IM_COILOUTF_V1_OFFSET 1 0.000000000000000e+00 1
K1:VIS-PR3_IM_COILOUTF_V1_SW1S 1 1.672400000000000e+04 0xffffffff
K1:VIS-PR3_IM_COILOUTF_V1_SW2S 1 1.541000000000000e+03 0xffffffff
K1:VIS-PR3_IM_COILOUTF_V1_TRAMP 1 2.000000000000000e+01 1
K1:VIS-PR3_IM_COILOUTF_V2_GAIN 1 -1.000000000000000e+00 1
K1:VIS-PR3_IM_COILOUTF_V2_LIMIT 1 1.000000000000000e+04 1
K1:VIS-PR3_IM_COILOUTF_V2_OFFSET 1 3.000000000000000e+02 1
K1:VIS-PR3_IM_COILOUTF_V2_SW1S 1 1.672400000000000e+04 0xffffffff
K1:VIS-PR3_IM_COILOUTF_V2_SW2S 1 1.541000000000000e+03 0xffffffff
K1:VIS-PR3_IM_COILOUTF_V2_TRAMP 1 2.000000000000000e+01 1
K1:VIS-PR3_IM_COILOUTF_V3_GAIN 1 -1.000000000000000e+00 1
K1:VIS-PR3_IM_COILOUTF_V3_LIMIT 1 1.000000000000000e+04 1
K1:VIS-PR3_IM_COILOUTF_V3_OFFSET 1 3.000000000000000e+02 1
K1:VIS-PR3_IM_COILOUTF_V3_SW1S 1 1.672400000000000e+04 0xffffffff
K1:VIS-PR3_IM_COILOUTF_V3_SW2S 1 1.541000000000000e+03 0xffffffff
K1:VIS-PR3_IM_COILOUTF_V3_TRAMP 1 2.000000000000000e+01 1
K1:VIS-PR3_IM_DAMP_L_GAIN 1 0.000000000000000e+00 1
K1:VIS-PR3_IM_DAMP_L_LIMIT 1 6.000000000000000e+04 1
K1:VIS-PR3_IM_DAMP_L_OFFSET 1 1.000000000000000e+00 1
K1:VIS-PR3_IM_DAMP_L_STATE_GOOD 1 0.000000000000000e+00 1
K1:VIS-PR3_IM_DAMP_L_SW1S 1 0.000000000000000e+00 0xffffffff
K1:VIS-PR3_IM_DAMP_L_SW2S 1 1.792000000000000e+03 0xffffffff
K1:VIS-PR3_IM_DAMP_L_TRAMP 1 5.000000000000000e+00 1
K1:VIS-PR3_IM_DAMP_P_GAIN 1 0.000000000000000e+00 1
K1:VIS-PR3_IM_DAMP_P_LIMIT 1 6.000000000000000e+04 1
K1:VIS-PR3_IM_DAMP_P_OFFSET 1 -7.500000000000000e+02 1
K1:VIS-PR3_IM_DAMP_P_STATE_GOOD 1 0.000000000000000e+00 1
K1:VIS-PR3_IM_DAMP_P_SW1S 1 0.000000000000000e+00 0xffffffff
K1:VIS-PR3_IM_DAMP_P_SW2S 1 1.792000000000000e+03 0xffffffff
K1:VIS-PR3_IM_DAMP_P_TRAMP 1 5.000000000000000e+00 1
K1:VIS-PR3_IM_DAMP_R_GAIN 1 0.000000000000000e+00 1
K1:VIS-PR3_IM_DAMP_R_LIMIT 1 6.000000000000000e+04 1
K1:VIS-PR3_IM_DAMP_R_OFFSET 1 0.000000000000000e+00 1
K1:VIS-PR3_IM_DAMP_R_STATE_GOOD 1 0.000000000000000e+00 1
K1:VIS-PR3_IM_DAMP_R_SW1S 1 0.000000000000000e+00 0xffffffff
K1:VIS-PR3_IM_DAMP_R_SW2S 1 1.792000000000000e+03 0xffffffff
K1:VIS-PR3_IM_DAMP_R_TRAMP 1 5.000000000000000e+00 1
K1:VIS-PR3_IM_DAMP_T_GAIN 1 0.000000000000000e+00 1
K1:VIS-PR3_IM_DAMP_T_LIMIT 1 6.000000000000000e+04 1
K1:VIS-PR3_IM_DAMP_T_OFFSET 1 -7.500000000000000e+01 1
K1:VIS-PR3_IM_DAMP_T_STATE_GOOD 1 0.000000000000000e+00 1
K1:VIS-PR3_IM_DAMP_T_SW1S 1 0.000000000000000e+00 0xffffffff
K1:VIS-PR3_IM_DAMP_T_SW2S 1 1.792000000000000e+03 0xffffffff
K1:VIS-PR3_IM_DAMP_T_TRAMP 1 5.000000000000000e+00 1
K1:VIS-PR3_IM_DAMP_V_GAIN 1 0.000000000000000e+00 1
K1:VIS-PR3_IM_DAMP_V_LIMIT 1 6.000000000000000e+04 1
K1:VIS-PR3_IM_DAMP_V_OFFSET 1 -1.600000000000000e+02 1
K1:VIS-PR3_IM_DAMP_V_STATE_GOOD 1 0.000000000000000e+00 1
K1:VIS-PR3_IM_DAMP_V_SW1S 1 0.000000000000000e+00 0xffffffff
K1:VIS-PR3_IM_DAMP_V_SW2S 1 7.680000000000000e+02 0xffffffff
K1:VIS-PR3_IM_DAMP_V_TRAMP 1 5.000000000000000e+00 1
K1:VIS-PR3_IM_DAMP_Y_GAIN 1 0.000000000000000e+00 1
K1:VIS-PR3_IM_DAMP_Y_LIMIT 1 6.000000000000000e+04 1
K1:VIS-PR3_IM_DAMP_Y_OFFSET 1 5.000000000000000e+03 1
K1:VIS-PR3_IM_DAMP_Y_STATE_GOOD 1 0.000000000000000e+00 1
K1:VIS-PR3_IM_DAMP_Y_SW1S 1 0.000000000000000e+00 0xffffffff
K1:VIS-PR3_IM_DAMP_Y_SW2S 1 1.792000000000000e+03 0xffffffff
K1:VIS-PR3_IM_DAMP_Y_TRAMP 1 5.000000000000000e+00 1
K1:VIS-PR3_IM_DITHER_P_GAIN 1 1.000000000000000e+00 1
K1:VIS-PR3_IM_DITHER_P_LIMIT 1 0.000000000000000e+00 1
K1:VIS-PR3_IM_DITHER_P_OFFSET 1 0.000000000000000e+00 1
K1:VIS-PR3_IM_DITHER_P_SW1S 1 1.200000000000000e+01 0xffffffff
K1:VIS-PR3_IM_DITHER_P_SW2S 1 1.536000000000000e+03 0xffffffff
K1:VIS-PR3_IM_DITHER_P_TRAMP 1 1.000000000000000e+00 1
K1:VIS-PR3_IM_DITHER_Y_GAIN 1 1.000000000000000e+00 1
K1:VIS-PR3_IM_DITHER_Y_LIMIT 1 0.000000000000000e+00 1
K1:VIS-PR3_IM_DITHER_Y_OFFSET 1 0.000000000000000e+00 1
K1:VIS-PR3_IM_DITHER_Y_SW1S 1 1.200000000000000e+01 0xffffffff
K1:VIS-PR3_IM_DITHER_Y_SW2S 1 1.536000000000000e+03 0xffffffff
K1:VIS-PR3_IM_DITHER_Y_TRAMP 1 1.000000000000000e+00 1
K1:VIS-PR3_IM_DRIVEALIGN_L2L_GAIN 1 1.000000000000000e+00 1
K1:VIS-PR3_IM_DRIVEALIGN_L2L_LIMIT 1 0.000000000000000e+00 1
K1:VIS-PR3_IM_DRIVEALIGN_L2L_OFFSET 1 0.000000000000000e+00 1
K1:VIS-PR3_IM_DRIVEALIGN_L2L_SW1S 1 4.000000000000000e+00 0xffffffff
K1:VIS-PR3_IM_DRIVEALIGN_L2L_SW2S 1 1.536000000000000e+03 0xffffffff
K1:VIS-PR3_IM_DRIVEALIGN_L2L_TRAMP 1 0.000000000000000e+00 1
K1:VIS-PR3_IM_DRIVEALIGN_L2P_GAIN 1 0.000000000000000e+00 1
K1:VIS-PR3_IM_DRIVEALIGN_L2P_LIMIT 1 0.000000000000000e+00 1
K1:VIS-PR3_IM_DRIVEALIGN_L2P_OFFSET 1 0.000000000000000e+00 1
K1:VIS-PR3_IM_DRIVEALIGN_L2P_SW1S 1 4.000000000000000e+00 0xffffffff
K1:VIS-PR3_IM_DRIVEALIGN_L2P_SW2S 1 5.120000000000000e+02 0xffffffff
K1:VIS-PR3_IM_DRIVEALIGN_L2P_TRAMP 1 0.000000000000000e+00 1
K1:VIS-PR3_IM_DRIVEALIGN_L2Y_GAIN 1 0.000000000000000e+00 1
K1:VIS-PR3_IM_DRIVEALIGN_L2Y_LIMIT 1 0.000000000000000e+00 1
K1:VIS-PR3_IM_DRIVEALIGN_L2Y_OFFSET 1 0.000000000000000e+00 1
K1:VIS-PR3_IM_DRIVEALIGN_L2Y_SW1S 1 4.000000000000000e+00 0xffffffff
K1:VIS-PR3_IM_DRIVEALIGN_L2Y_SW2S 1 5.120000000000000e+02 0xffffffff
K1:VIS-PR3_IM_DRIVEALIGN_L2Y_TRAMP 1 0.000000000000000e+00 1
K1:VIS-PR3_IM_DRIVEALIGN_P2L_GAIN 1 0.000000000000000e+00 1
K1:VIS-PR3_IM_DRIVEALIGN_P2L_LIMIT 1 0.000000000000000e+00 1
K1:VIS-PR3_IM_DRIVEALIGN_P2L_OFFSET 1 0.000000000000000e+00 1
K1:VIS-PR3_IM_DRIVEALIGN_P2L_SW1S 1 4.000000000000000e+00 0xffffffff
K1:VIS-PR3_IM_DRIVEALIGN_P2L_SW2S 1 5.120000000000000e+02 0xffffffff
K1:VIS-PR3_IM_DRIVEALIGN_P2L_TRAMP 1 0.000000000000000e+00 1
K1:VIS-PR3_IM_DRIVEALIGN_P2P_GAIN 1 1.000000000000000e+00 1
K1:VIS-PR3_IM_DRIVEALIGN_P2P_LIMIT 1 0.000000000000000e+00 1
K1:VIS-PR3_IM_DRIVEALIGN_P2P_OFFSET 1 0.000000000000000e+00 1
K1:VIS-PR3_IM_DRIVEALIGN_P2P_SW1S 1 4.000000000000000e+00 0xffffffff
K1:VIS-PR3_IM_DRIVEALIGN_P2P_SW2S 1 1.536000000000000e+03 0xffffffff
K1:VIS-PR3_IM_DRIVEALIGN_P2P_TRAMP 1 0.000000000000000e+00 1
K1:VIS-PR3_IM_DRIVEALIGN_P2Y_GAIN 1 0.000000000000000e+00 1
K1:VIS-PR3_IM_DRIVEALIGN_P2Y_LIMIT 1 0.000000000000000e+00 1
K1:VIS-PR3_IM_DRIVEALIGN_P2Y_OFFSET 1 0.000000000000000e+00 1
K1:VIS-PR3_IM_DRIVEALIGN_P2Y_SW1S 1 4.000000000000000e+00 0xffffffff
K1:VIS-PR3_IM_DRIVEALIGN_P2Y_SW2S 1 5.120000000000000e+02 0xffffffff
K1:VIS-PR3_IM_DRIVEALIGN_P2Y_TRAMP 1 0.000000000000000e+00 1
K1:VIS-PR3_IM_DRIVEALIGN_Y2L_GAIN 1 0.000000000000000e+00 1
K1:VIS-PR3_IM_DRIVEALIGN_Y2L_LIMIT 1 0.000000000000000e+00 1
K1:VIS-PR3_IM_DRIVEALIGN_Y2L_OFFSET 1 0.000000000000000e+00 1
K1:VIS-PR3_IM_DRIVEALIGN_Y2L_SW1S 1 4.000000000000000e+00 0xffffffff
K1:VIS-PR3_IM_DRIVEALIGN_Y2L_SW2S 1 5.120000000000000e+02 0xffffffff
K1:VIS-PR3_IM_DRIVEALIGN_Y2L_TRAMP 1 0.000000000000000e+00 1
K1:VIS-PR3_IM_DRIVEALIGN_Y2P_GAIN 1 0.000000000000000e+00 1
K1:VIS-PR3_IM_DRIVEALIGN_Y2P_LIMIT 1 0.000000000000000e+00 1
K1:VIS-PR3_IM_DRIVEALIGN_Y2P_OFFSET 1 0.000000000000000e+00 1
K1:VIS-PR3_IM_DRIVEALIGN_Y2P_SW1S 1 4.000000000000000e+00 0xffffffff
K1:VIS-PR3_IM_DRIVEALIGN_Y2P_SW2S 1 5.120000000000000e+02 0xffffffff
K1:VIS-PR3_IM_DRIVEALIGN_Y2P_TRAMP 1 0.000000000000000e+00 1
K1:VIS-PR3_IM_DRIVEALIGN_Y2Y_GAIN 1 1.000000000000000e+00 1
K1:VIS-PR3_IM_DRIVEALIGN_Y2Y_LIMIT 1 0.000000000000000e+00 1
K1:VIS-PR3_IM_DRIVEALIGN_Y2Y_OFFSET 1 0.000000000000000e+00 1
K1:VIS-PR3_IM_DRIVEALIGN_Y2Y_SW1S 1 4.000000000000000e+00 0xffffffff
K1:VIS-PR3_IM_DRIVEALIGN_Y2Y_SW2S 1 1.536000000000000e+03 0xffffffff
K1:VIS-PR3_IM_DRIVEALIGN_Y2Y_TRAMP 1 0.000000000000000e+00 1
K1:VIS-PR3_IM_EUL2OSEM_1_1 1 0.000000000000000e+00 1
K1:VIS-PR3_IM_EUL2OSEM_1_2 1 0.000000000000000e+00 1
K1:VIS-PR3_IM_EUL2OSEM_1_3 1 -3.333000000000000e-01 1
K1:VIS-PR3_IM_EUL2OSEM_1_4 1 0.000000000000000e+00 1
K1:VIS-PR3_IM_EUL2OSEM_1_5 1 5.000000000000000e-01 1
K1:VIS-PR3_IM_EUL2OSEM_1_6 1 0.000000000000000e+00 1
K1:VIS-PR3_IM_EUL2OSEM_2_1 1 0.000000000000000e+00 1
K1:VIS-PR3_IM_EUL2OSEM_2_2 1 0.000000000000000e+00 1
K1:VIS-PR3_IM_EUL2OSEM_2_3 1 -3.333000000000000e-01 1
K1:VIS-PR3_IM_EUL2OSEM_2_4 1 -5.000000000000000e-01 1
K1:VIS-PR3_IM_EUL2OSEM_2_5 1 -2.500000000000000e-01 1
K1:VIS-PR3_IM_EUL2OSEM_2_6 1 0.000000000000000e+00 1
K1:VIS-PR3_IM_EUL2OSEM_3_1 1 0.000000000000000e+00 1
K1:VIS-PR3_IM_EUL2OSEM_3_2 1 0.000000000000000e+00 1
K1:VIS-PR3_IM_EUL2OSEM_3_3 1 -3.333000000000000e-01 1
K1:VIS-PR3_IM_EUL2OSEM_3_4 1 5.000000000000000e-01 1
K1:VIS-PR3_IM_EUL2OSEM_3_5 1 -2.500000000000000e-01 1
K1:VIS-PR3_IM_EUL2OSEM_3_6 1 0.000000000000000e+00 1
K1:VIS-PR3_IM_EUL2OSEM_4_1 1 -1.000000000000000e+00 1
K1:VIS-PR3_IM_EUL2OSEM_4_2 1 0.000000000000000e+00 1
K1:VIS-PR3_IM_EUL2OSEM_4_3 1 0.000000000000000e+00 1
K1:VIS-PR3_IM_EUL2OSEM_4_4 1 0.000000000000000e+00 1
K1:VIS-PR3_IM_EUL2OSEM_4_5 1 0.000000000000000e+00 1
K1:VIS-PR3_IM_EUL2OSEM_4_6 1 0.000000000000000e+00 1
K1:VIS-PR3_IM_EUL2OSEM_5_1 1 0.000000000000000e+00 1
K1:VIS-PR3_IM_EUL2OSEM_5_2 1 -5.000000000000000e-01 1
K1:VIS-PR3_IM_EUL2OSEM_5_3 1 0.000000000000000e+00 1
K1:VIS-PR3_IM_EUL2OSEM_5_4 1 0.000000000000000e+00 1
K1:VIS-PR3_IM_EUL2OSEM_5_5 1 0.000000000000000e+00 1
K1:VIS-PR3_IM_EUL2OSEM_5_6 1 -5.000000000000000e-01 1
K1:VIS-PR3_IM_EUL2OSEM_6_1 1 0.000000000000000e+00 1
K1:VIS-PR3_IM_EUL2OSEM_6_2 1 5.000000000000000e-01 1
K1:VIS-PR3_IM_EUL2OSEM_6_3 1 0.000000000000000e+00 1
K1:VIS-PR3_IM_EUL2OSEM_6_4 1 0.000000000000000e+00 1
K1:VIS-PR3_IM_EUL2OSEM_6_5 1 0.000000000000000e+00 1
K1:VIS-PR3_IM_EUL2OSEM_6_6 1 -5.000000000000000e-01 1
K1:VIS-PR3_IM_LKIN2OSEM_1_1 1 -5.000000000000000e-01 1
K1:VIS-PR3_IM_LKIN2OSEM_1_2 1 0.000000000000000e+00 1
K1:VIS-PR3_IM_LKIN2OSEM_2_1 1 2.500000000000000e-01 1
K1:VIS-PR3_IM_LKIN2OSEM_2_2 1 0.000000000000000e+00 1
K1:VIS-PR3_IM_LKIN2OSEM_3_1 1 2.500000000000000e-01 1
K1:VIS-PR3_IM_LKIN2OSEM_3_2 1 0.000000000000000e+00 1
K1:VIS-PR3_IM_LKIN2OSEM_4_1 1 0.000000000000000e+00 1
K1:VIS-PR3_IM_LKIN2OSEM_4_2 1 0.000000000000000e+00 1
K1:VIS-PR3_IM_LKIN2OSEM_5_1 1 0.000000000000000e+00 1
K1:VIS-PR3_IM_LKIN2OSEM_5_2 1 5.000000000000000e-01 1
K1:VIS-PR3_IM_LKIN2OSEM_6_1 1 0.000000000000000e+00 1
K1:VIS-PR3_IM_LKIN2OSEM_6_2 1 5.000000000000000e-01 1
K1:VIS-PR3_IM_LOCK_L_GAIN 1 0.000000000000000e+00 1
K1:VIS-PR3_IM_LOCK_L_LIMIT 1 0.000000000000000e+00 1
K1:VIS-PR3_IM_LOCK_L_OFFSET 1 0.000000000000000e+00 1
K1:VIS-PR3_IM_LOCK_L_STATE_GOOD 1 0.000000000000000e+00 1
K1:VIS-PR3_IM_LOCK_L_SW1S 1 8.400000000000000e+01 0xffffffff
K1:VIS-PR3_IM_LOCK_L_SW2S 1 1.536000000000000e+03 0xffffffff
K1:VIS-PR3_IM_LOCK_L_TRAMP 1 1.000000000000000e+00 1
K1:VIS-PR3_IM_LOCK_P_GAIN 1 1.000000000000000e+00 1
K1:VIS-PR3_IM_LOCK_P_LIMIT 1 0.000000000000000e+00 1
K1:VIS-PR3_IM_LOCK_P_OFFSET 1 0.000000000000000e+00 1
K1:VIS-PR3_IM_LOCK_P_STATE_GOOD 1 0.000000000000000e+00 1
K1:VIS-PR3_IM_LOCK_P_SW1S 1 1.200000000000000e+01 0xffffffff
K1:VIS-PR3_IM_LOCK_P_SW2S 1 1.536000000000000e+03 0xffffffff
K1:VIS-PR3_IM_LOCK_P_TRAMP 1 1.000000000000000e+00 1
K1:VIS-PR3_IM_LOCK_Y_GAIN 1 1.000000000000000e+00 1
K1:VIS-PR3_IM_LOCK_Y_LIMIT 1 0.000000000000000e+00 1
K1:VIS-PR3_IM_LOCK_Y_OFFSET 1 0.000000000000000e+00 1
K1:VIS-PR3_IM_LOCK_Y_STATE_GOOD 1 0.000000000000000e+00 1
K1:VIS-PR3_IM_LOCK_Y_SW1S 1 1.200000000000000e+01 0xffffffff
K1:VIS-PR3_IM_LOCK_Y_SW2S 1 1.536000000000000e+03 0xffffffff
K1:VIS-PR3_IM_LOCK_Y_TRAMP 1 1.000000000000000e+00 1
K1:VIS-PR3_IM_OLDAMP_L_GAIN 1 0.000000000000000e+00 1
K1:VIS-PR3_IM_OLDAMP_L_LIMIT 1 6.000000000000000e+04 1
K1:VIS-PR3_IM_OLDAMP_L_OFFSET 1 0.000000000000000e+00 1
K1:VIS-PR3_IM_OLDAMP_L_STATE_GOOD 1 0.000000000000000e+00 1
K1:VIS-PR3_IM_OLDAMP_L_SW1S 1 9.200000000000000e+01 0xffffffff
K1:VIS-PR3_IM_OLDAMP_L_SW2S 1 1.792000000000000e+03 0xffffffff
K1:VIS-PR3_IM_OLDAMP_L_TRAMP 1 0.000000000000000e+00 1
K1:VIS-PR3_IM_OLDAMP_P_GAIN 1 0.000000000000000e+00 1
K1:VIS-PR3_IM_OLDAMP_P_LIMIT 1 6.000000000000000e+04 1
K1:VIS-PR3_IM_OLDAMP_P_OFFSET 1 0.000000000000000e+00 1
K1:VIS-PR3_IM_OLDAMP_P_STATE_GOOD 1 0.000000000000000e+00 1
K1:VIS-PR3_IM_OLDAMP_P_SW1S 1 1.036000000000000e+03 0xffffffff
K1:VIS-PR3_IM_OLDAMP_P_SW2S 1 1.792000000000000e+03 0xffffffff
K1:VIS-PR3_IM_OLDAMP_P_TRAMP 1 5.000000000000000e+00 1
K1:VIS-PR3_IM_OLDAMP_Y_GAIN 1 0.000000000000000e+00 1
K1:VIS-PR3_IM_OLDAMP_Y_LIMIT 1 6.000000000000000e+04 1
K1:VIS-PR3_IM_OLDAMP_Y_OFFSET 1 0.000000000000000e+00 1
K1:VIS-PR3_IM_OLDAMP_Y_STATE_GOOD 1 0.000000000000000e+00 1
K1:VIS-PR3_IM_OLDAMP_Y_SW1S 1 1.036000000000000e+03 0xffffffff
K1:VIS-PR3_IM_OLDAMP_Y_SW2S 1 1.792000000000000e+03 0xffffffff
K1:VIS-PR3_IM_OLDAMP_Y_TRAMP 1 5.000000000000000e+00 1
K1:VIS-PR3_IM_OPTICALIGN_P_GAIN 1 1.000000000000000e+00 1
K1:VIS-PR3_IM_OPTICALIGN_P_LIMIT 1 0.000000000000000e+00 1
K1:VIS-PR3_IM_OPTICALIGN_P_OFFSET 1 3.900000000000000e+02 1
K1:VIS-PR3_IM_OPTICALIGN_P_SW1S 1 5.000000000000000e+00 0xffffffff
K1:VIS-PR3_IM_OPTICALIGN_P_SW2S 1 1.536000000000000e+03 0xffffffff
K1:VIS-PR3_IM_OPTICALIGN_P_TRAMP 1 0.000000000000000e+00 1
K1:VIS-PR3_IM_OPTICALIGN_Y_GAIN 1 1.000000000000000e+00 1
K1:VIS-PR3_IM_OPTICALIGN_Y_LIMIT 1 0.000000000000000e+00 1
K1:VIS-PR3_IM_OPTICALIGN_Y_OFFSET 1 5.000000000000000e+00 1
K1:VIS-PR3_IM_OPTICALIGN_Y_SW1S 1 5.000000000000000e+00 0xffffffff
K1:VIS-PR3_IM_OPTICALIGN_Y_SW2S 1 1.536000000000000e+03 0xffffffff
K1:VIS-PR3_IM_OPTICALIGN_Y_TRAMP 1 0.000000000000000e+00 1
K1:VIS-PR3_IM_OSEM2EUL_1_1 1 0.000000000000000e+00 1
K1:VIS-PR3_IM_OSEM2EUL_1_2 1 0.000000000000000e+00 1
K1:VIS-PR3_IM_OSEM2EUL_1_3 1 0.000000000000000e+00 1
K1:VIS-PR3_IM_OSEM2EUL_1_4 1 1.000000000000000e+00 1
K1:VIS-PR3_IM_OSEM2EUL_1_5 1 0.000000000000000e+00 1
K1:VIS-PR3_IM_OSEM2EUL_1_6 1 0.000000000000000e+00 1
K1:VIS-PR3_IM_OSEM2EUL_2_1 1 0.000000000000000e+00 1
K1:VIS-PR3_IM_OSEM2EUL_2_2 1 0.000000000000000e+00 1
K1:VIS-PR3_IM_OSEM2EUL_2_3 1 0.000000000000000e+00 1
K1:VIS-PR3_IM_OSEM2EUL_2_4 1 0.000000000000000e+00 1
K1:VIS-PR3_IM_OSEM2EUL_2_5 1 5.000000000000000e-01 1
K1:VIS-PR3_IM_OSEM2EUL_2_6 1 -6.480000000000000e-01 1
K1:VIS-PR3_IM_OSEM2EUL_3_1 1 3.330000000000000e-01 1
K1:VIS-PR3_IM_OSEM2EUL_3_2 1 1.790000000000000e-01 1
K1:VIS-PR3_IM_OSEM2EUL_3_3 1 1.980000000000000e-01 1
K1:VIS-PR3_IM_OSEM2EUL_3_4 1 0.000000000000000e+00 1
K1:VIS-PR3_IM_OSEM2EUL_3_5 1 0.000000000000000e+00 1
K1:VIS-PR3_IM_OSEM2EUL_3_6 1 0.000000000000000e+00 1
K1:VIS-PR3_IM_OSEM2EUL_4_1 1 0.000000000000000e+00 1
K1:VIS-PR3_IM_OSEM2EUL_4_2 1 6.024096000000000e+00 1
K1:VIS-PR3_IM_OSEM2EUL_4_3 1 -6.662600000000000e+00 1
K1:VIS-PR3_IM_OSEM2EUL_4_4 1 0.000000000000000e+00 1
K1:VIS-PR3_IM_OSEM2EUL_4_5 1 0.000000000000000e+00 1
K1:VIS-PR3_IM_OSEM2EUL_4_6 1 0.000000000000000e+00 1
K1:VIS-PR3_IM_OSEM2EUL_5_1 1 -5.263150000000000e+00 1
K1:VIS-PR3_IM_OSEM2EUL_5_2 1 1.410250000000000e+00 1
K1:VIS-PR3_IM_OSEM2EUL_5_3 1 1.568420000000000e+00 1
K1:VIS-PR3_IM_OSEM2EUL_5_4 1 0.000000000000000e+00 1
K1:VIS-PR3_IM_OSEM2EUL_5_5 1 0.000000000000000e+00 1
K1:VIS-PR3_IM_OSEM2EUL_5_6 1 0.000000000000000e+00 1
K1:VIS-PR3_IM_OSEM2EUL_6_1 1 0.000000000000000e+00 1
K1:VIS-PR3_IM_OSEM2EUL_6_2 1 0.000000000000000e+00 1
K1:VIS-PR3_IM_OSEM2EUL_6_3 1 0.000000000000000e+00 1
K1:VIS-PR3_IM_OSEM2EUL_6_4 1 0.000000000000000e+00 1
K1:VIS-PR3_IM_OSEM2EUL_6_5 1 5.952380000000000e+00 1
K1:VIS-PR3_IM_OSEM2EUL_6_6 1 7.702380000000000e+00 1
K1:VIS-PR3_IM_OSEMINF_H1_GAIN 1 -7.500000000000000e-02 1
K1:VIS-PR3_IM_OSEMINF_H1_LIMIT 1 0.000000000000000e+00 1
K1:VIS-PR3_IM_OSEMINF_H1_OFFSET 1 -8.200000000000000e+03 1
K1:VIS-PR3_IM_OSEMINF_H1_SW1S 1 2.800000000000000e+01 0xffffffff
K1:VIS-PR3_IM_OSEMINF_H1_SW2S 1 1.552000000000000e+03 0xffffffff
K1:VIS-PR3_IM_OSEMINF_H1_TRAMP 1 0.000000000000000e+00 1
K1:VIS-PR3_IM_OSEMINF_H2_GAIN 1 -6.800000000000000e-02 1
K1:VIS-PR3_IM_OSEMINF_H2_LIMIT 1 0.000000000000000e+00 1
K1:VIS-PR3_IM_OSEMINF_H2_OFFSET 1 -8.200000000000000e+03 1
K1:VIS-PR3_IM_OSEMINF_H2_SW1S 1 2.800000000000000e+01 0xffffffff
K1:VIS-PR3_IM_OSEMINF_H2_SW2S 1 1.552000000000000e+03 0xffffffff
K1:VIS-PR3_IM_OSEMINF_H2_TRAMP 1 0.000000000000000e+00 1
K1:VIS-PR3_IM_OSEMINF_H3_GAIN 1 -7.500000000000000e-02 1
K1:VIS-PR3_IM_OSEMINF_H3_LIMIT 1 0.000000000000000e+00 1
K1:VIS-PR3_IM_OSEMINF_H3_OFFSET 1 -8.200000000000000e+03 1
K1:VIS-PR3_IM_OSEMINF_H3_SW1S 1 2.800000000000000e+01 0xffffffff
K1:VIS-PR3_IM_OSEMINF_H3_SW2S 1 1.552000000000000e+03 0xffffffff
K1:VIS-PR3_IM_OSEMINF_H3_TRAMP 1 0.000000000000000e+00 1
K1:VIS-PR3_IM_OSEMINF_V1_GAIN 1 -6.900000000000001e-02 1
K1:VIS-PR3_IM_OSEMINF_V1_LIMIT 1 0.000000000000000e+00 1
K1:VIS-PR3_IM_OSEMINF_V1_OFFSET 1 -8.200000000000000e+03 1
K1:VIS-PR3_IM_OSEMINF_V1_SW1S 1 2.800000000000000e+01 0xffffffff
K1:VIS-PR3_IM_OSEMINF_V1_SW2S 1 1.552000000000000e+03 0xffffffff
K1:VIS-PR3_IM_OSEMINF_V1_TRAMP 1 0.000000000000000e+00 1
K1:VIS-PR3_IM_OSEMINF_V2_GAIN 1 -7.500000000000000e-02 1
K1:VIS-PR3_IM_OSEMINF_V2_LIMIT 1 0.000000000000000e+00 1
K1:VIS-PR3_IM_OSEMINF_V2_OFFSET 1 -8.200000000000000e+03 1
K1:VIS-PR3_IM_OSEMINF_V2_SW1S 1 2.800000000000000e+01 0xffffffff
K1:VIS-PR3_IM_OSEMINF_V2_SW2S 1 1.552000000000000e+03 0xffffffff
K1:VIS-PR3_IM_OSEMINF_V2_TRAMP 1 0.000000000000000e+00 1
K1:VIS-PR3_IM_OSEMINF_V3_GAIN 1 -6.800000000000000e-02 1
K1:VIS-PR3_IM_OSEMINF_V3_LIMIT 1 0.000000000000000e+00 1
K1:VIS-PR3_IM_OSEMINF_V3_OFFSET 1 -8.200000000000000e+03 1
K1:VIS-PR3_IM_OSEMINF_V3_SW1S 1 2.800000000000000e+01 0xffffffff
K1:VIS-PR3_IM_OSEMINF_V3_SW2S 1 1.552000000000000e+03 0xffffffff
K1:VIS-PR3_IM_OSEMINF_V3_TRAMP 1 0.000000000000000e+00 1
K1:VIS-PR3_IM_PSD_P_GAIN 1 1.000000000000000e+00 1
K1:VIS-PR3_IM_PSD_P_LIMIT 1 0.000000000000000e+00 1
K1:VIS-PR3_IM_PSD_P_OFFSET 1 0.000000000000000e+00 1
K1:VIS-PR3_IM_PSD_P_SW1S 1 4.000000000000000e+00 0xffffffff
K1:VIS-PR3_IM_PSD_P_SW2S 1 1.536000000000000e+03 0xffffffff
K1:VIS-PR3_IM_PSD_P_TRAMP 1 0.000000000000000e+00 1
K1:VIS-PR3_IM_PSD_Y_GAIN 1 1.000000000000000e+00 1
K1:VIS-PR3_IM_PSD_Y_LIMIT 1 0.000000000000000e+00 1
K1:VIS-PR3_IM_PSD_Y_OFFSET 1 0.000000000000000e+00 1
K1:VIS-PR3_IM_PSD_Y_SW1S 1 4.000000000000000e+00 0xffffffff
K1:VIS-PR3_IM_PSD_Y_SW2S 1 1.536000000000000e+03 0xffffffff
K1:VIS-PR3_IM_PSD_Y_TRAMP 1 0.000000000000000e+00 1
K1:VIS-PR3_IM_SENSALIGN_1_1 1 1.000000000000000e+00 1
K1:VIS-PR3_IM_SENSALIGN_1_2 1 0.000000000000000e+00 1
K1:VIS-PR3_IM_SENSALIGN_1_3 1 0.000000000000000e+00 1
K1:VIS-PR3_IM_SENSALIGN_1_4 1 0.000000000000000e+00 1
K1:VIS-PR3_IM_SENSALIGN_1_5 1 6.000000000000000e-03 1
K1:VIS-PR3_IM_SENSALIGN_1_6 1 0.000000000000000e+00 1
K1:VIS-PR3_IM_SENSALIGN_2_1 1 0.000000000000000e+00 1
K1:VIS-PR3_IM_SENSALIGN_2_2 1 1.000000000000000e+00 1
K1:VIS-PR3_IM_SENSALIGN_2_3 1 0.000000000000000e+00 1
K1:VIS-PR3_IM_SENSALIGN_2_4 1 0.000000000000000e+00 1
K1:VIS-PR3_IM_SENSALIGN_2_5 1 0.000000000000000e+00 1
K1:VIS-PR3_IM_SENSALIGN_2_6 1 0.000000000000000e+00 1
K1:VIS-PR3_IM_SENSALIGN_3_1 1 0.000000000000000e+00 1
K1:VIS-PR3_IM_SENSALIGN_3_2 1 -5.000000000000000e-03 1
K1:VIS-PR3_IM_SENSALIGN_3_3 1 1.000000000000000e+00 1
K1:VIS-PR3_IM_SENSALIGN_3_4 1 0.000000000000000e+00 1
K1:VIS-PR3_IM_SENSALIGN_3_5 1 3.900000000000000e-02 1
K1:VIS-PR3_IM_SENSALIGN_3_6 1 0.000000000000000e+00 1
K1:VIS-PR3_IM_SENSALIGN_4_1 1 0.000000000000000e+00 1
K1:VIS-PR3_IM_SENSALIGN_4_2 1 -1.700000000000000e-01 1
K1:VIS-PR3_IM_SENSALIGN_4_3 1 0.000000000000000e+00 1
K1:VIS-PR3_IM_SENSALIGN_4_4 1 1.000000000000000e+00 1
K1:VIS-PR3_IM_SENSALIGN_4_5 1 -1.130000000000000e-01 1
K1:VIS-PR3_IM_SENSALIGN_4_6 1 0.000000000000000e+00 1
K1:VIS-PR3_IM_SENSALIGN_5_1 1 2.180000000000000e-01 1
K1:VIS-PR3_IM_SENSALIGN_5_2 1 1.050000000000000e-01 1
K1:VIS-PR3_IM_SENSALIGN_5_3 1 0.000000000000000e+00 1
K1:VIS-PR3_IM_SENSALIGN_5_4 1 0.000000000000000e+00 1
K1:VIS-PR3_IM_SENSALIGN_5_5 1 1.000000000000000e+00 1
K1:VIS-PR3_IM_SENSALIGN_5_6 1 0.000000000000000e+00 1
K1:VIS-PR3_IM_SENSALIGN_6_1 1 2.480000000000000e-01 1
K1:VIS-PR3_IM_SENSALIGN_6_2 1 3.075000000000000e+00 1
K1:VIS-PR3_IM_SENSALIGN_6_3 1 0.000000000000000e+00 1
K1:VIS-PR3_IM_SENSALIGN_6_4 1 0.000000000000000e+00 1
K1:VIS-PR3_IM_SENSALIGN_6_5 1 9.100000000000000e-02 1
K1:VIS-PR3_IM_SENSALIGN_6_6 1 1.000000000000000e+00 1
K1:VIS-PR3_IM_TEST_L_GAIN 1 1.000000000000000e+00 1
K1:VIS-PR3_IM_TEST_L_LIMIT 1 0.000000000000000e+00 1
K1:VIS-PR3_IM_TEST_L_OFFSET 1 -2.500000000000000e+03 1
K1:VIS-PR3_IM_TEST_L_SW1S 1 4.000000000000000e+00 0xffffffff
K1:VIS-PR3_IM_TEST_L_SW2S 1 1.536000000000000e+03 0xffffffff
K1:VIS-PR3_IM_TEST_L_TRAMP 1 3.000000000000000e+00 1
K1:VIS-PR3_IM_TEST_P_GAIN 1 1.000000000000000e+00 1
K1:VIS-PR3_IM_TEST_P_LIMIT 1 0.000000000000000e+00 1
K1:VIS-PR3_IM_TEST_P_OFFSET 1 5.000000000000000e+03 1
K1:VIS-PR3_IM_TEST_P_SW1S 1 4.000000000000000e+00 0xffffffff
K1:VIS-PR3_IM_TEST_P_SW2S 1 1.536000000000000e+03 0xffffffff
K1:VIS-PR3_IM_TEST_P_TRAMP 1 3.000000000000000e+00 1
K1:VIS-PR3_IM_TEST_R_GAIN 1 1.000000000000000e+00 1
K1:VIS-PR3_IM_TEST_R_LIMIT 1 0.000000000000000e+00 1
K1:VIS-PR3_IM_TEST_R_OFFSET 1 1.000000000000000e+03 1
K1:VIS-PR3_IM_TEST_R_SW1S 1 4.000000000000000e+00 0xffffffff
K1:VIS-PR3_IM_TEST_R_SW2S 1 1.536000000000000e+03 0xffffffff
K1:VIS-PR3_IM_TEST_R_TRAMP 1 3.000000000000000e+00 1
K1:VIS-PR3_IM_TEST_T_GAIN 1 1.000000000000000e+00 1
K1:VIS-PR3_IM_TEST_T_LIMIT 1 0.000000000000000e+00 1
K1:VIS-PR3_IM_TEST_T_OFFSET 1 0.000000000000000e+00 1
K1:VIS-PR3_IM_TEST_T_SW1S 1 4.000000000000000e+00 0xffffffff
K1:VIS-PR3_IM_TEST_T_SW2S 1 1.536000000000000e+03 0xffffffff
K1:VIS-PR3_IM_TEST_T_TRAMP 1 3.000000000000000e+00 1
K1:VIS-PR3_IM_TEST_V_GAIN 1 1.000000000000000e+00 1
K1:VIS-PR3_IM_TEST_V_LIMIT 1 0.000000000000000e+00 1
K1:VIS-PR3_IM_TEST_V_OFFSET 1 4.000000000000000e+02 1
K1:VIS-PR3_IM_TEST_V_SW1S 1 4.000000000000000e+00 0xffffffff
K1:VIS-PR3_IM_TEST_V_SW2S 1 1.536000000000000e+03 0xffffffff
K1:VIS-PR3_IM_TEST_V_TRAMP 1 3.000000000000000e+00 1
K1:VIS-PR3_IM_TEST_Y_GAIN 1 1.000000000000000e+00 1
K1:VIS-PR3_IM_TEST_Y_LIMIT 1 0.000000000000000e+00 1
K1:VIS-PR3_IM_TEST_Y_OFFSET 1 1.500000000000000e+03 1
K1:VIS-PR3_IM_TEST_Y_SW1S 1 4.000000000000000e+00 0xffffffff
K1:VIS-PR3_IM_TEST_Y_SW2S 1 1.536000000000000e+03 0xffffffff
K1:VIS-PR3_IM_TEST_Y_TRAMP 1 3.000000000000000e+00 1
K1:VIS-PR3_IM_WD_OSEMAC_BANDLIM_H1_GAIN 1 1.000000000000000e+00 1
K1:VIS-PR3_IM_WD_OSEMAC_BANDLIM_H1_LIMIT 1 0.000000000000000e+00 1
K1:VIS-PR3_IM_WD_OSEMAC_BANDLIM_H1_OFFSET 1 0.000000000000000e+00 1
K1:VIS-PR3_IM_WD_OSEMAC_BANDLIM_H1_SW1S 1 2.800000000000000e+01 0xffffffff
K1:VIS-PR3_IM_WD_OSEMAC_BANDLIM_H1_SW2S 1 1.536000000000000e+03 0xffffffff
K1:VIS-PR3_IM_WD_OSEMAC_BANDLIM_H1_TRAMP 1 0.000000000000000e+00 1
K1:VIS-PR3_IM_WD_OSEMAC_BANDLIM_H2_GAIN 1 1.000000000000000e+00 1
K1:VIS-PR3_IM_WD_OSEMAC_BANDLIM_H2_LIMIT 1 0.000000000000000e+00 1
K1:VIS-PR3_IM_WD_OSEMAC_BANDLIM_H2_OFFSET 1 0.000000000000000e+00 1
K1:VIS-PR3_IM_WD_OSEMAC_BANDLIM_H2_SW1S 1 2.800000000000000e+01 0xffffffff
K1:VIS-PR3_IM_WD_OSEMAC_BANDLIM_H2_SW2S 1 1.536000000000000e+03 0xffffffff
K1:VIS-PR3_IM_WD_OSEMAC_BANDLIM_H2_TRAMP 1 0.000000000000000e+00 1
K1:VIS-PR3_IM_WD_OSEMAC_BANDLIM_H3_GAIN 1 1.000000000000000e+00 1
K1:VIS-PR3_IM_WD_OSEMAC_BANDLIM_H3_LIMIT 1 0.000000000000000e+00 1
K1:VIS-PR3_IM_WD_OSEMAC_BANDLIM_H3_OFFSET 1 0.000000000000000e+00 1
K1:VIS-PR3_IM_WD_OSEMAC_BANDLIM_H3_SW1S 1 2.800000000000000e+01 0xffffffff
K1:VIS-PR3_IM_WD_OSEMAC_BANDLIM_H3_SW2S 1 1.536000000000000e+03 0xffffffff
K1:VIS-PR3_IM_WD_OSEMAC_BANDLIM_H3_TRAMP 1 0.000000000000000e+00 1
K1:VIS-PR3_IM_WD_OSEMAC_BANDLIM_V1_GAIN 1 1.000000000000000e+00 1
K1:VIS-PR3_IM_WD_OSEMAC_BANDLIM_V1_LIMIT 1 0.000000000000000e+00 1
K1:VIS-PR3_IM_WD_OSEMAC_BANDLIM_V1_OFFSET 1 0.000000000000000e+00 1
K1:VIS-PR3_IM_WD_OSEMAC_BANDLIM_V1_SW1S 1 2.800000000000000e+01 0xffffffff
K1:VIS-PR3_IM_WD_OSEMAC_BANDLIM_V1_SW2S 1 1.536000000000000e+03 0xffffffff
K1:VIS-PR3_IM_WD_OSEMAC_BANDLIM_V1_TRAMP 1 0.000000000000000e+00 1
K1:VIS-PR3_IM_WD_OSEMAC_BANDLIM_V2_GAIN 1 1.000000000000000e+00 1
K1:VIS-PR3_IM_WD_OSEMAC_BANDLIM_V2_LIMIT 1 0.000000000000000e+00 1
K1:VIS-PR3_IM_WD_OSEMAC_BANDLIM_V2_OFFSET 1 0.000000000000000e+00 1
K1:VIS-PR3_IM_WD_OSEMAC_BANDLIM_V2_SW1S 1 2.800000000000000e+01 0xffffffff
K1:VIS-PR3_IM_WD_OSEMAC_BANDLIM_V2_SW2S 1 1.536000000000000e+03 0xffffffff
K1:VIS-PR3_IM_WD_OSEMAC_BANDLIM_V2_TRAMP 1 0.000000000000000e+00 1
K1:VIS-PR3_IM_WD_OSEMAC_BANDLIM_V3_GAIN 1 1.000000000000000e+00 1
K1:VIS-PR3_IM_WD_OSEMAC_BANDLIM_V3_LIMIT 1 0.000000000000000e+00 1
K1:VIS-PR3_IM_WD_OSEMAC_BANDLIM_V3_OFFSET 1 0.000000000000000e+00 1
K1:VIS-PR3_IM_WD_OSEMAC_BANDLIM_V3_SW1S 1 2.800000000000000e+01 0xffffffff
K1:VIS-PR3_IM_WD_OSEMAC_BANDLIM_V3_SW2S 1 1.536000000000000e+03 0xffffffff
K1:VIS-PR3_IM_WD_OSEMAC_BANDLIM_V3_TRAMP 1 0.000000000000000e+00 1
K1:VIS-PR3_IM_WD_OSEMAC_RMS_MAX 1 1.000000000000000e+03 1
K1:VIS-PR3_LKIN_P_DEMOD_I_GAIN 1 1.000000000000000e+00 1
K1:VIS-PR3_LKIN_P_DEMOD_I_LIMIT 1 0.000000000000000e+00 1
K1:VIS-PR3_LKIN_P_DEMOD_I_OFFSET 1 0.000000000000000e+00 1
K1:VIS-PR3_LKIN_P_DEMOD_I_SW1S 1 4.000000000000000e+00 0xffffffff
K1:VIS-PR3_LKIN_P_DEMOD_I_SW2S 1 1.536000000000000e+03 0xffffffff
K1:VIS-PR3_LKIN_P_DEMOD_I_TRAMP 1 0.000000000000000e+00 1
K1:VIS-PR3_LKIN_P_DEMOD_PHASE 1 0.000000000000000e+00 1
K1:VIS-PR3_LKIN_P_DEMOD_Q_GAIN 1 1.000000000000000e+00 1
K1:VIS-PR3_LKIN_P_DEMOD_Q_LIMIT 1 0.000000000000000e+00 1
K1:VIS-PR3_LKIN_P_DEMOD_Q_OFFSET 1 0.000000000000000e+00 1
K1:VIS-PR3_LKIN_P_DEMOD_Q_SW1S 1 4.000000000000000e+00 0xffffffff
K1:VIS-PR3_LKIN_P_DEMOD_Q_SW2S 1 1.536000000000000e+03 0xffffffff
K1:VIS-PR3_LKIN_P_DEMOD_Q_TRAMP 1 0.000000000000000e+00 1
K1:VIS-PR3_LKIN_P_DEMOD_SIG_GAIN 1 1.000000000000000e+00 1
K1:VIS-PR3_LKIN_P_DEMOD_SIG_LIMIT 1 0.000000000000000e+00 1
K1:VIS-PR3_LKIN_P_DEMOD_SIG_OFFSET 1 0.000000000000000e+00 1
K1:VIS-PR3_LKIN_P_DEMOD_SIG_SW1S 1 4.000000000000000e+00 0xffffffff
K1:VIS-PR3_LKIN_P_DEMOD_SIG_SW2S 1 1.536000000000000e+03 0xffffffff
K1:VIS-PR3_LKIN_P_DEMOD_SIG_TRAMP 1 0.000000000000000e+00 1
K1:VIS-PR3_LKIN_P_OSC_CLKGAIN 1 0.000000000000000e+00 1
K1:VIS-PR3_LKIN_P_OSC_COSGAIN 1 0.000000000000000e+00 1
K1:VIS-PR3_LKIN_P_OSC_FREQ 1 0.000000000000000e+00 1
K1:VIS-PR3_LKIN_P_OSC_SINGAIN 1 0.000000000000000e+00 1
K1:VIS-PR3_LKIN_P_OSC_TRAMP 1 0.000000000000000e+00 1
K1:VIS-PR3_LKIN_Y_DEMOD_I_GAIN 1 1.000000000000000e+00 1
K1:VIS-PR3_LKIN_Y_DEMOD_I_LIMIT 1 0.000000000000000e+00 1
K1:VIS-PR3_LKIN_Y_DEMOD_I_OFFSET 1 0.000000000000000e+00 1
K1:VIS-PR3_LKIN_Y_DEMOD_I_SW1S 1 4.000000000000000e+00 0xffffffff
K1:VIS-PR3_LKIN_Y_DEMOD_I_SW2S 1 1.536000000000000e+03 0xffffffff
K1:VIS-PR3_LKIN_Y_DEMOD_I_TRAMP 1 0.000000000000000e+00 1
K1:VIS-PR3_LKIN_Y_DEMOD_PHASE 1 0.000000000000000e+00 1
K1:VIS-PR3_LKIN_Y_DEMOD_Q_GAIN 1 1.000000000000000e+00 1
K1:VIS-PR3_LKIN_Y_DEMOD_Q_LIMIT 1 0.000000000000000e+00 1
K1:VIS-PR3_LKIN_Y_DEMOD_Q_OFFSET 1 0.000000000000000e+00 1
K1:VIS-PR3_LKIN_Y_DEMOD_Q_SW1S 1 4.000000000000000e+00 0xffffffff
K1:VIS-PR3_LKIN_Y_DEMOD_Q_SW2S 1 1.536000000000000e+03 0xffffffff
K1:VIS-PR3_LKIN_Y_DEMOD_Q_TRAMP 1 0.000000000000000e+00 1
K1:VIS-PR3_LKIN_Y_DEMOD_SIG_GAIN 1 1.000000000000000e+00 1
K1:VIS-PR3_LKIN_Y_DEMOD_SIG_LIMIT 1 0.000000000000000e+00 1
K1:VIS-PR3_LKIN_Y_DEMOD_SIG_OFFSET 1 0.000000000000000e+00 1
K1:VIS-PR3_LKIN_Y_DEMOD_SIG_SW1S 1 4.000000000000000e+00 0xffffffff
K1:VIS-PR3_LKIN_Y_DEMOD_SIG_SW2S 1 1.536000000000000e+03 0xffffffff
K1:VIS-PR3_LKIN_Y_DEMOD_SIG_TRAMP 1 0.000000000000000e+00 1
K1:VIS-PR3_LKIN_Y_OSC_CLKGAIN 1 0.000000000000000e+00 1
K1:VIS-PR3_LKIN_Y_OSC_COSGAIN 1 0.000000000000000e+00 1
K1:VIS-PR3_LKIN_Y_OSC_FREQ 1 0.000000000000000e+00 1
K1:VIS-PR3_LKIN_Y_OSC_SINGAIN 1 0.000000000000000e+00 1
K1:VIS-PR3_LKIN_Y_OSC_TRAMP 1 0.000000000000000e+00 1
K1:VIS-PR3_PAY_DACKILL_BPSET 1 0.000000000000000e+00 1
K1:VIS-PR3_PAY_DACKILL_BPTIME 1 0.000000000000000e+00 1
K1:VIS-PR3_PAY_DACKILL_RESET 1 0.000000000000000e+00 1
K1:VIS-PR3_PAY_DACKILL_STATE 1 1.000000000000000e+00 0
K1:VIS-PR3_PAY_SHUTDOWN_RAMPT 1 0.000000000000000e+00 1
K1:VIS-PR3_PICO_IM_STATUS 1 -1.000000000000000e+00 1
K1:VIS-PR3_PICO_OP_STATUS 1 -1.000000000000000e+00 1
K1:VIS-PR3_TM_ADD_L_GAIN 1 1.000000000000000e+00 1
K1:VIS-PR3_TM_ADD_L_LIMIT 1 0.000000000000000e+00 1
K1:VIS-PR3_TM_ADD_L_OFFSET 1 0.000000000000000e+00 1
K1:VIS-PR3_TM_ADD_L_SW1S 1 4.000000000000000e+00 0xffffffff
K1:VIS-PR3_TM_ADD_L_SW2S 1 1.536000000000000e+03 0xffffffff
K1:VIS-PR3_TM_ADD_L_TRAMP 1 0.000000000000000e+00 1
K1:VIS-PR3_TM_ADD_P_GAIN 1 1.000000000000000e+00 1
K1:VIS-PR3_TM_ADD_P_LIMIT 1 0.000000000000000e+00 1
K1:VIS-PR3_TM_ADD_P_OFFSET 1 0.000000000000000e+00 1
K1:VIS-PR3_TM_ADD_P_SW1S 1 4.000000000000000e+00 0xffffffff
K1:VIS-PR3_TM_ADD_P_SW2S 1 1.536000000000000e+03 0xffffffff
K1:VIS-PR3_TM_ADD_P_TRAMP 1 0.000000000000000e+00 1
K1:VIS-PR3_TM_ADD_Y_GAIN 1 1.000000000000000e+00 1
K1:VIS-PR3_TM_ADD_Y_LIMIT 1 0.000000000000000e+00 1
K1:VIS-PR3_TM_ADD_Y_OFFSET 1 0.000000000000000e+00 1
K1:VIS-PR3_TM_ADD_Y_SW1S 1 4.000000000000000e+00 0xffffffff
K1:VIS-PR3_TM_ADD_Y_SW2S 1 1.536000000000000e+03 0xffffffff
K1:VIS-PR3_TM_ADD_Y_TRAMP 1 0.000000000000000e+00 1
K1:VIS-PR3_TM_CAL_LINE_CLKGAIN 1 0.000000000000000e+00 1
K1:VIS-PR3_TM_CAL_LINE_COSGAIN 1 0.000000000000000e+00 1
K1:VIS-PR3_TM_CAL_LINE_FREQ 1 0.000000000000000e+00 1
K1:VIS-PR3_TM_CAL_LINE_SINGAIN 1 0.000000000000000e+00 1
K1:VIS-PR3_TM_CAL_LINE_TRAMP 1 0.000000000000000e+00 1
K1:VIS-PR3_TM_COILOUTF_H1_GAIN 1 -8.120000000000001e-01 1
K1:VIS-PR3_TM_COILOUTF_H1_LIMIT 1 2.000000000000000e+04 1
K1:VIS-PR3_TM_COILOUTF_H1_OFFSET 1 1.000000000000000e+03 1
K1:VIS-PR3_TM_COILOUTF_H1_SW1S 1 1.672400000000000e+04 0xffffffff
K1:VIS-PR3_TM_COILOUTF_H1_SW2S 1 1.797000000000000e+03 0xffffffff
K1:VIS-PR3_TM_COILOUTF_H1_TRAMP 1 2.000000000000000e+01 1
K1:VIS-PR3_TM_COILOUTF_H2_GAIN 1 1.000000000000000e+00 1
K1:VIS-PR3_TM_COILOUTF_H2_LIMIT 1 2.000000000000000e+04 1
K1:VIS-PR3_TM_COILOUTF_H2_OFFSET 1 1.000000000000000e+03 1
K1:VIS-PR3_TM_COILOUTF_H2_SW1S 1 1.672400000000000e+04 0xffffffff
K1:VIS-PR3_TM_COILOUTF_H2_SW2S 1 1.797000000000000e+03 0xffffffff
K1:VIS-PR3_TM_COILOUTF_H2_TRAMP 1 2.000000000000000e+01 1
K1:VIS-PR3_TM_COILOUTF_H3_GAIN 1 -7.960000000000000e-01 1
K1:VIS-PR3_TM_COILOUTF_H3_LIMIT 1 2.000000000000000e+04 1
K1:VIS-PR3_TM_COILOUTF_H3_OFFSET 1 1.000000000000000e+03 1
K1:VIS-PR3_TM_COILOUTF_H3_SW1S 1 1.672400000000000e+04 0xffffffff
K1:VIS-PR3_TM_COILOUTF_H3_SW2S 1 1.797000000000000e+03 0xffffffff
K1:VIS-PR3_TM_COILOUTF_H3_TRAMP 1 2.000000000000000e+01 1
K1:VIS-PR3_TM_COILOUTF_H4_GAIN 1 8.210000000000000e-01 1
K1:VIS-PR3_TM_COILOUTF_H4_LIMIT 1 2.000000000000000e+04 1
K1:VIS-PR3_TM_COILOUTF_H4_OFFSET 1 1.000000000000000e+03 1
K1:VIS-PR3_TM_COILOUTF_H4_SW1S 1 1.672400000000000e+04 0xffffffff
K1:VIS-PR3_TM_COILOUTF_H4_SW2S 1 1.797000000000000e+03 0xffffffff
K1:VIS-PR3_TM_COILOUTF_H4_TRAMP 1 2.000000000000000e+01 1
K1:VIS-PR3_TM_DITHER_P_GAIN 1 1.000000000000000e+00 1
K1:VIS-PR3_TM_DITHER_P_LIMIT 1 0.000000000000000e+00 1
K1:VIS-PR3_TM_DITHER_P_OFFSET 1 0.000000000000000e+00 1
K1:VIS-PR3_TM_DITHER_P_SW1S 1 2.800000000000000e+01 0xffffffff
K1:VIS-PR3_TM_DITHER_P_SW2S 1 1.536000000000000e+03 0xffffffff
K1:VIS-PR3_TM_DITHER_P_TRAMP 1 5.000000000000000e-01 1
K1:VIS-PR3_TM_DITHER_Y_GAIN 1 1.000000000000000e+00 1
K1:VIS-PR3_TM_DITHER_Y_LIMIT 1 0.000000000000000e+00 1
K1:VIS-PR3_TM_DITHER_Y_OFFSET 1 0.000000000000000e+00 1
K1:VIS-PR3_TM_DITHER_Y_SW1S 1 2.800000000000000e+01 0xffffffff
K1:VIS-PR3_TM_DITHER_Y_SW2S 1 1.536000000000000e+03 0xffffffff
K1:VIS-PR3_TM_DITHER_Y_TRAMP 1 5.000000000000000e-01 1
K1:VIS-PR3_TM_DRIVEALIGN_L2L_GAIN 1 1.000000000000000e+00 1
K1:VIS-PR3_TM_DRIVEALIGN_L2L_LIMIT 1 0.000000000000000e+00 1
K1:VIS-PR3_TM_DRIVEALIGN_L2L_OFFSET 1 0.000000000000000e+00 1
K1:VIS-PR3_TM_DRIVEALIGN_L2L_SW1S 1 4.000000000000000e+00 0xffffffff
K1:VIS-PR3_TM_DRIVEALIGN_L2L_SW2S 1 1.536000000000000e+03 0xffffffff
K1:VIS-PR3_TM_DRIVEALIGN_L2L_TRAMP 1 0.000000000000000e+00 1
K1:VIS-PR3_TM_DRIVEALIGN_L2P_GAIN 1 0.000000000000000e+00 1
K1:VIS-PR3_TM_DRIVEALIGN_L2P_LIMIT 1 0.000000000000000e+00 1
K1:VIS-PR3_TM_DRIVEALIGN_L2P_OFFSET 1 0.000000000000000e+00 1
K1:VIS-PR3_TM_DRIVEALIGN_L2P_SW1S 1 4.000000000000000e+00 0xffffffff
K1:VIS-PR3_TM_DRIVEALIGN_L2P_SW2S 1 5.120000000000000e+02 0xffffffff
K1:VIS-PR3_TM_DRIVEALIGN_L2P_TRAMP 1 0.000000000000000e+00 1
K1:VIS-PR3_TM_DRIVEALIGN_L2Y_GAIN 1 0.000000000000000e+00 1
K1:VIS-PR3_TM_DRIVEALIGN_L2Y_LIMIT 1 0.000000000000000e+00 1
K1:VIS-PR3_TM_DRIVEALIGN_L2Y_OFFSET 1 0.000000000000000e+00 1
K1:VIS-PR3_TM_DRIVEALIGN_L2Y_SW1S 1 4.000000000000000e+00 0xffffffff
K1:VIS-PR3_TM_DRIVEALIGN_L2Y_SW2S 1 5.120000000000000e+02 0xffffffff
K1:VIS-PR3_TM_DRIVEALIGN_L2Y_TRAMP 1 0.000000000000000e+00 1
K1:VIS-PR3_TM_DRIVEALIGN_P2L_GAIN 1 -3.000000000000000e-02 1
K1:VIS-PR3_TM_DRIVEALIGN_P2L_LIMIT 1 0.000000000000000e+00 1
K1:VIS-PR3_TM_DRIVEALIGN_P2L_OFFSET 1 0.000000000000000e+00 1
K1:VIS-PR3_TM_DRIVEALIGN_P2L_SW1S 1 4.000000000000000e+00 0xffffffff
K1:VIS-PR3_TM_DRIVEALIGN_P2L_SW2S 1 5.120000000000000e+02 0xffffffff
K1:VIS-PR3_TM_DRIVEALIGN_P2L_TRAMP 1 3.000000000000000e+00 1
K1:VIS-PR3_TM_DRIVEALIGN_P2P_GAIN 1 1.000000000000000e+00 1
K1:VIS-PR3_TM_DRIVEALIGN_P2P_LIMIT 1 0.000000000000000e+00 1
K1:VIS-PR3_TM_DRIVEALIGN_P2P_OFFSET 1 0.000000000000000e+00 1
K1:VIS-PR3_TM_DRIVEALIGN_P2P_SW1S 1 4.000000000000000e+00 0xffffffff
K1:VIS-PR3_TM_DRIVEALIGN_P2P_SW2S 1 1.536000000000000e+03 0xffffffff
K1:VIS-PR3_TM_DRIVEALIGN_P2P_TRAMP 1 0.000000000000000e+00 1
K1:VIS-PR3_TM_DRIVEALIGN_P2Y_GAIN 1 0.000000000000000e+00 1
K1:VIS-PR3_TM_DRIVEALIGN_P2Y_LIMIT 1 0.000000000000000e+00 1
K1:VIS-PR3_TM_DRIVEALIGN_P2Y_OFFSET 1 0.000000000000000e+00 1
K1:VIS-PR3_TM_DRIVEALIGN_P2Y_SW1S 1 4.000000000000000e+00 0xffffffff
K1:VIS-PR3_TM_DRIVEALIGN_P2Y_SW2S 1 5.120000000000000e+02 0xffffffff
K1:VIS-PR3_TM_DRIVEALIGN_P2Y_TRAMP 1 0.000000000000000e+00 1
K1:VIS-PR3_TM_DRIVEALIGN_Y2L_GAIN 1 0.000000000000000e+00 1
K1:VIS-PR3_TM_DRIVEALIGN_Y2L_LIMIT 1 0.000000000000000e+00 1
K1:VIS-PR3_TM_DRIVEALIGN_Y2L_OFFSET 1 0.000000000000000e+00 1
K1:VIS-PR3_TM_DRIVEALIGN_Y2L_SW1S 1 4.000000000000000e+00 0xffffffff
K1:VIS-PR3_TM_DRIVEALIGN_Y2L_SW2S 1 1.536000000000000e+03 0xffffffff
K1:VIS-PR3_TM_DRIVEALIGN_Y2L_TRAMP 1 3.000000000000000e+00 1
K1:VIS-PR3_TM_DRIVEALIGN_Y2P_GAIN 1 0.000000000000000e+00 1
K1:VIS-PR3_TM_DRIVEALIGN_Y2P_LIMIT 1 0.000000000000000e+00 1
K1:VIS-PR3_TM_DRIVEALIGN_Y2P_OFFSET 1 0.000000000000000e+00 1
K1:VIS-PR3_TM_DRIVEALIGN_Y2P_SW1S 1 4.000000000000000e+00 0xffffffff
K1:VIS-PR3_TM_DRIVEALIGN_Y2P_SW2S 1 5.120000000000000e+02 0xffffffff
K1:VIS-PR3_TM_DRIVEALIGN_Y2P_TRAMP 1 0.000000000000000e+00 1
K1:VIS-PR3_TM_DRIVEALIGN_Y2Y_GAIN 1 1.000000000000000e+00 1
K1:VIS-PR3_TM_DRIVEALIGN_Y2Y_LIMIT 1 0.000000000000000e+00 1
K1:VIS-PR3_TM_DRIVEALIGN_Y2Y_OFFSET 1 0.000000000000000e+00 1
K1:VIS-PR3_TM_DRIVEALIGN_Y2Y_SW1S 1 4.000000000000000e+00 0xffffffff
K1:VIS-PR3_TM_DRIVEALIGN_Y2Y_SW2S 1 1.536000000000000e+03 0xffffffff
K1:VIS-PR3_TM_DRIVEALIGN_Y2Y_TRAMP 1 0.000000000000000e+00 1
K1:VIS-PR3_TM_EUL2OSEM_1_1 1 1.000000000000000e+00 1
K1:VIS-PR3_TM_EUL2OSEM_1_2 1 1.000000000000000e+00 1
K1:VIS-PR3_TM_EUL2OSEM_1_3 1 -1.000000000000000e+00 1
K1:VIS-PR3_TM_EUL2OSEM_2_1 1 1.000000000000000e+00 1
K1:VIS-PR3_TM_EUL2OSEM_2_2 1 -1.000000000000000e+00 1
K1:VIS-PR3_TM_EUL2OSEM_2_3 1 -1.000000000000000e+00 1
K1:VIS-PR3_TM_EUL2OSEM_3_1 1 1.000000000000000e+00 1
K1:VIS-PR3_TM_EUL2OSEM_3_2 1 -1.000000000000000e+00 1
K1:VIS-PR3_TM_EUL2OSEM_3_3 1 1.000000000000000e+00 1
K1:VIS-PR3_TM_EUL2OSEM_4_1 1 1.000000000000000e+00 1
K1:VIS-PR3_TM_EUL2OSEM_4_2 1 1.000000000000000e+00 1
K1:VIS-PR3_TM_EUL2OSEM_4_3 1 1.000000000000000e+00 1
K1:VIS-PR3_TM_ISCINF_L_GAIN 1 1.000000000000000e+00 1
K1:VIS-PR3_TM_ISCINF_L_LIMIT 1 0.000000000000000e+00 1
K1:VIS-PR3_TM_ISCINF_L_OFFSET 1 0.000000000000000e+00 1
K1:VIS-PR3_TM_ISCINF_L_SW1S 1 4.000000000000000e+00 0xffffffff
K1:VIS-PR3_TM_ISCINF_L_SW2S 1 1.536000000000000e+03 0xffffffff
K1:VIS-PR3_TM_ISCINF_L_TRAMP 1 5.000000000000000e+00 1
K1:VIS-PR3_TM_ISCINF_P_GAIN 1 1.000000000000000e+00 1
K1:VIS-PR3_TM_ISCINF_P_LIMIT 1 0.000000000000000e+00 1
K1:VIS-PR3_TM_ISCINF_P_OFFSET 1 0.000000000000000e+00 1
K1:VIS-PR3_TM_ISCINF_P_SW1S 1 1.200000000000000e+01 0xffffffff
K1:VIS-PR3_TM_ISCINF_P_SW2S 1 1.536000000000000e+03 0xffffffff
K1:VIS-PR3_TM_ISCINF_P_TRAMP 1 5.000000000000000e-01 1
K1:VIS-PR3_TM_ISCINF_Y_GAIN 1 1.000000000000000e+00 1
K1:VIS-PR3_TM_ISCINF_Y_LIMIT 1 0.000000000000000e+00 1
K1:VIS-PR3_TM_ISCINF_Y_OFFSET 1 0.000000000000000e+00 1
K1:VIS-PR3_TM_ISCINF_Y_SW1S 1 1.200000000000000e+01 0xffffffff
K1:VIS-PR3_TM_ISCINF_Y_SW2S 1 1.536000000000000e+03 0xffffffff
K1:VIS-PR3_TM_ISCINF_Y_TRAMP 1 5.000000000000000e-01 1
K1:VIS-PR3_TM_LKIN2OSEM_1_1 1 0.000000000000000e+00 1
K1:VIS-PR3_TM_LKIN2OSEM_1_2 1 0.000000000000000e+00 1
K1:VIS-PR3_TM_LKIN2OSEM_2_1 1 0.000000000000000e+00 1
K1:VIS-PR3_TM_LKIN2OSEM_2_2 1 0.000000000000000e+00 1
K1:VIS-PR3_TM_LKIN2OSEM_3_1 1 0.000000000000000e+00 1
K1:VIS-PR3_TM_LKIN2OSEM_3_2 1 0.000000000000000e+00 1
K1:VIS-PR3_TM_LKIN2OSEM_4_1 1 0.000000000000000e+00 1
K1:VIS-PR3_TM_LKIN2OSEM_4_2 1 0.000000000000000e+00 1
K1:VIS-PR3_TM_LOCK_L_GAIN 1 -4.625000000000000e+01 1
K1:VIS-PR3_TM_LOCK_L_LIMIT 1 0.000000000000000e+00 1
K1:VIS-PR3_TM_LOCK_L_OFFSET 1 0.000000000000000e+00 1
K1:VIS-PR3_TM_LOCK_L_STATE_GOOD 1 0.000000000000000e+00 1
K1:VIS-PR3_TM_LOCK_L_SW1S 1 4.000000000000000e+00 0xffffffff
K1:VIS-PR3_TM_LOCK_L_SW2S 1 1.536000000000000e+03 0xffffffff
K1:VIS-PR3_TM_LOCK_L_TRAMP 1 3.000000000000000e+00 1
K1:VIS-PR3_TM_LOCK_P_GAIN 1 0.000000000000000e+00 1
K1:VIS-PR3_TM_LOCK_P_LIMIT 1 0.000000000000000e+00 1
K1:VIS-PR3_TM_LOCK_P_OFFSET 1 1.100000000000000e+01 1
K1:VIS-PR3_TM_LOCK_P_STATE_GOOD 1 0.000000000000000e+00 1
K1:VIS-PR3_TM_LOCK_P_SW1S 1 0.000000000000000e+00 0xffffffff
K1:VIS-PR3_TM_LOCK_P_SW2S 1 5.120000000000000e+02 0xffffffff
K1:VIS-PR3_TM_LOCK_P_TRAMP 1 0.000000000000000e+00 1
K1:VIS-PR3_TM_LOCK_Y_GAIN 1 0.000000000000000e+00 1
K1:VIS-PR3_TM_LOCK_Y_LIMIT 1 0.000000000000000e+00 1
K1:VIS-PR3_TM_LOCK_Y_OFFSET 1 0.000000000000000e+00 1
K1:VIS-PR3_TM_LOCK_Y_STATE_GOOD 1 0.000000000000000e+00 1
K1:VIS-PR3_TM_LOCK_Y_SW1S 1 0.000000000000000e+00 0xffffffff
K1:VIS-PR3_TM_LOCK_Y_SW2S 1 5.120000000000000e+02 0xffffffff
K1:VIS-PR3_TM_LOCK_Y_TRAMP 1 0.000000000000000e+00 1
K1:VIS-PR3_TM_OLDAMP_L_GAIN 1 0.000000000000000e+00 1
K1:VIS-PR3_TM_OLDAMP_L_LIMIT 1 0.000000000000000e+00 1
K1:VIS-PR3_TM_OLDAMP_L_OFFSET 1 0.000000000000000e+00 1
K1:VIS-PR3_TM_OLDAMP_L_STATE_GOOD 1 0.000000000000000e+00 1
K1:VIS-PR3_TM_OLDAMP_L_SW1S 1 4.000000000000000e+00 0xffffffff
K1:VIS-PR3_TM_OLDAMP_L_SW2S 1 1.536000000000000e+03 0xffffffff
K1:VIS-PR3_TM_OLDAMP_L_TRAMP 1 0.000000000000000e+00 1
K1:VIS-PR3_TM_OLDAMP_P_GAIN 1 0.000000000000000e+00 1
K1:VIS-PR3_TM_OLDAMP_P_LIMIT 1 0.000000000000000e+00 1
K1:VIS-PR3_TM_OLDAMP_P_OFFSET 1 0.000000000000000e+00 1
K1:VIS-PR3_TM_OLDAMP_P_STATE_GOOD 1 0.000000000000000e+00 1
K1:VIS-PR3_TM_OLDAMP_P_SW1S 1 4.000000000000000e+00 0xffffffff
K1:VIS-PR3_TM_OLDAMP_P_SW2S 1 1.536000000000000e+03 0xffffffff
K1:VIS-PR3_TM_OLDAMP_P_TRAMP 1 0.000000000000000e+00 1
K1:VIS-PR3_TM_OLDAMP_Y_GAIN 1 0.000000000000000e+00 1
K1:VIS-PR3_TM_OLDAMP_Y_LIMIT 1 0.000000000000000e+00 1
K1:VIS-PR3_TM_OLDAMP_Y_OFFSET 1 0.000000000000000e+00 1
K1:VIS-PR3_TM_OLDAMP_Y_STATE_GOOD 1 0.000000000000000e+00 1
K1:VIS-PR3_TM_OLDAMP_Y_SW1S 1 4.000000000000000e+00 0xffffffff
K1:VIS-PR3_TM_OLDAMP_Y_SW2S 1 1.536000000000000e+03 0xffffffff
K1:VIS-PR3_TM_OLDAMP_Y_TRAMP 1 0.000000000000000e+00 1
K1:VIS-PR3_TM_OPLEV2EUL_1_1 1 0.000000000000000e+00 1
K1:VIS-PR3_TM_OPLEV2EUL_1_2 1 0.000000000000000e+00 1
K1:VIS-PR3_TM_OPLEV2EUL_1_3 1 0.000000000000000e+00 1
K1:VIS-PR3_TM_OPLEV2EUL_1_4 1 1.000000000000000e+00 1
K1:VIS-PR3_TM_OPLEV2EUL_2_1 1 1.000000000000000e+00 1
K1:VIS-PR3_TM_OPLEV2EUL_2_2 1 0.000000000000000e+00 1
K1:VIS-PR3_TM_OPLEV2EUL_2_3 1 0.000000000000000e+00 1
K1:VIS-PR3_TM_OPLEV2EUL_2_4 1 0.000000000000000e+00 1
K1:VIS-PR3_TM_OPLEV2EUL_3_1 1 0.000000000000000e+00 1
K1:VIS-PR3_TM_OPLEV2EUL_3_2 1 1.000000000000000e+00 1
K1:VIS-PR3_TM_OPLEV2EUL_3_3 1 0.000000000000000e+00 1
K1:VIS-PR3_TM_OPLEV2EUL_3_4 1 0.000000000000000e+00 1
K1:VIS-PR3_TM_OPLEV_LEN_CRS_GAIN 1 1.000000000000000e+00 1
K1:VIS-PR3_TM_OPLEV_LEN_CRS_LIMIT 1 0.000000000000000e+00 1
K1:VIS-PR3_TM_OPLEV_LEN_CRS_OFFSET 1 0.000000000000000e+00 1
K1:VIS-PR3_TM_OPLEV_LEN_CRS_SW1S 1 4.000000000000000e+00 0xffffffff
K1:VIS-PR3_TM_OPLEV_LEN_CRS_SW2S 1 1.536000000000000e+03 0xffffffff
K1:VIS-PR3_TM_OPLEV_LEN_CRS_TRAMP 1 0.000000000000000e+00 1
K1:VIS-PR3_TM_OPLEV_LEN_HOR_GAIN 1 1.000000000000000e+00 1
K1:VIS-PR3_TM_OPLEV_LEN_HOR_LIMIT 1 0.000000000000000e+00 1
K1:VIS-PR3_TM_OPLEV_LEN_HOR_OFFSET 1 0.000000000000000e+00 1
K1:VIS-PR3_TM_OPLEV_LEN_HOR_SW1S 1 4.000000000000000e+00 0xffffffff
K1:VIS-PR3_TM_OPLEV_LEN_HOR_SW2S 1 1.536000000000000e+03 0xffffffff
K1:VIS-PR3_TM_OPLEV_LEN_HOR_TRAMP 1 0.000000000000000e+00 1
K1:VIS-PR3_TM_OPLEV_LEN_MTRX_1_1 1 -1.000000000000000e+00 1
K1:VIS-PR3_TM_OPLEV_LEN_MTRX_1_2 1 -1.000000000000000e+00 1
K1:VIS-PR3_TM_OPLEV_LEN_MTRX_1_3 1 1.000000000000000e+00 1
K1:VIS-PR3_TM_OPLEV_LEN_MTRX_1_4 1 1.000000000000000e+00 1
K1:VIS-PR3_TM_OPLEV_LEN_MTRX_2_1 1 1.000000000000000e+00 1
K1:VIS-PR3_TM_OPLEV_LEN_MTRX_2_2 1 -1.000000000000000e+00 1
K1:VIS-PR3_TM_OPLEV_LEN_MTRX_2_3 1 -1.000000000000000e+00 1
K1:VIS-PR3_TM_OPLEV_LEN_MTRX_2_4 1 1.000000000000000e+00 1
K1:VIS-PR3_TM_OPLEV_LEN_MTRX_3_1 1 1.000000000000000e+00 1
K1:VIS-PR3_TM_OPLEV_LEN_MTRX_3_2 1 1.000000000000000e+00 1
K1:VIS-PR3_TM_OPLEV_LEN_MTRX_3_3 1 1.000000000000000e+00 1
K1:VIS-PR3_TM_OPLEV_LEN_MTRX_3_4 1 1.000000000000000e+00 1
K1:VIS-PR3_TM_OPLEV_LEN_MTRX_4_1 1 0.000000000000000e+00 1
K1:VIS-PR3_TM_OPLEV_LEN_MTRX_4_2 1 0.000000000000000e+00 1
K1:VIS-PR3_TM_OPLEV_LEN_MTRX_4_3 1 0.000000000000000e+00 1
K1:VIS-PR3_TM_OPLEV_LEN_MTRX_4_4 1 0.000000000000000e+00 1
K1:VIS-PR3_TM_OPLEV_LEN_SEG1_GAIN 1 -1.000000000000000e+00 1
K1:VIS-PR3_TM_OPLEV_LEN_SEG1_LIMIT 1 0.000000000000000e+00 1
K1:VIS-PR3_TM_OPLEV_LEN_SEG1_OFFSET 1 0.000000000000000e+00 1
K1:VIS-PR3_TM_OPLEV_LEN_SEG1_SW1S 1 4.000000000000000e+00 0xffffffff
K1:VIS-PR3_TM_OPLEV_LEN_SEG1_SW2S 1 1.556000000000000e+03 0xffffffff
K1:VIS-PR3_TM_OPLEV_LEN_SEG1_TRAMP 1 0.000000000000000e+00 1
K1:VIS-PR3_TM_OPLEV_LEN_SEG2_GAIN 1 -1.000000000000000e+00 1
K1:VIS-PR3_TM_OPLEV_LEN_SEG2_LIMIT 1 0.000000000000000e+00 1
K1:VIS-PR3_TM_OPLEV_LEN_SEG2_OFFSET 1 0.000000000000000e+00 1
K1:VIS-PR3_TM_OPLEV_LEN_SEG2_SW1S 1 4.000000000000000e+00 0xffffffff
K1:VIS-PR3_TM_OPLEV_LEN_SEG2_SW2S 1 1.556000000000000e+03 0xffffffff
K1:VIS-PR3_TM_OPLEV_LEN_SEG2_TRAMP 1 0.000000000000000e+00 1
K1:VIS-PR3_TM_OPLEV_LEN_SEG3_GAIN 1 -1.000000000000000e+00 1
K1:VIS-PR3_TM_OPLEV_LEN_SEG3_LIMIT 1 0.000000000000000e+00 1
K1:VIS-PR3_TM_OPLEV_LEN_SEG3_OFFSET 1 0.000000000000000e+00 1
K1:VIS-PR3_TM_OPLEV_LEN_SEG3_SW1S 1 4.000000000000000e+00 0xffffffff
K1:VIS-PR3_TM_OPLEV_LEN_SEG3_SW2S 1 1.556000000000000e+03 0xffffffff
K1:VIS-PR3_TM_OPLEV_LEN_SEG3_TRAMP 1 0.000000000000000e+00 1
K1:VIS-PR3_TM_OPLEV_LEN_SEG4_GAIN 1 -1.000000000000000e+00 1
K1:VIS-PR3_TM_OPLEV_LEN_SEG4_LIMIT 1 0.000000000000000e+00 1
K1:VIS-PR3_TM_OPLEV_LEN_SEG4_OFFSET 1 0.000000000000000e+00 1
K1:VIS-PR3_TM_OPLEV_LEN_SEG4_SW1S 1 4.000000000000000e+00 0xffffffff
K1:VIS-PR3_TM_OPLEV_LEN_SEG4_SW2S 1 1.556000000000000e+03 0xffffffff
K1:VIS-PR3_TM_OPLEV_LEN_SEG4_TRAMP 1 0.000000000000000e+00 1
K1:VIS-PR3_TM_OPLEV_LEN_SUM_GAIN 1 1.000000000000000e+00 1
K1:VIS-PR3_TM_OPLEV_LEN_SUM_LIMIT 1 0.000000000000000e+00 1
K1:VIS-PR3_TM_OPLEV_LEN_SUM_OFFSET 1 -1.100000000000000e+04 1
K1:VIS-PR3_TM_OPLEV_LEN_SUM_SW1S 1 4.000000000000000e+00 0xffffffff
K1:VIS-PR3_TM_OPLEV_LEN_SUM_SW2S 1 1.536000000000000e+03 0xffffffff
K1:VIS-PR3_TM_OPLEV_LEN_SUM_TRAMP 1 0.000000000000000e+00 1
K1:VIS-PR3_TM_OPLEV_LEN_VER_GAIN 1 1.000000000000000e+00 1
K1:VIS-PR3_TM_OPLEV_LEN_VER_LIMIT 1 0.000000000000000e+00 1
K1:VIS-PR3_TM_OPLEV_LEN_VER_OFFSET 1 0.000000000000000e+00 1
K1:VIS-PR3_TM_OPLEV_LEN_VER_SW1S 1 4.000000000000000e+00 0xffffffff
K1:VIS-PR3_TM_OPLEV_LEN_VER_SW2S 1 1.536000000000000e+03 0xffffffff
K1:VIS-PR3_TM_OPLEV_LEN_VER_TRAMP 1 0.000000000000000e+00 1
K1:VIS-PR3_TM_OPLEV_TILT_CRS_GAIN 1 1.000000000000000e+00 1
K1:VIS-PR3_TM_OPLEV_TILT_CRS_LIMIT 1 0.000000000000000e+00 1
K1:VIS-PR3_TM_OPLEV_TILT_CRS_OFFSET 1 0.000000000000000e+00 1
K1:VIS-PR3_TM_OPLEV_TILT_CRS_SW1S 1 4.000000000000000e+00 0xffffffff
K1:VIS-PR3_TM_OPLEV_TILT_CRS_SW2S 1 1.536000000000000e+03 0xffffffff
K1:VIS-PR3_TM_OPLEV_TILT_CRS_TRAMP 1 0.000000000000000e+00 1
K1:VIS-PR3_TM_OPLEV_TILT_HOR_GAIN 1 -3.122066862816885e+02 1
K1:VIS-PR3_TM_OPLEV_TILT_HOR_LIMIT 1 0.000000000000000e+00 1
K1:VIS-PR3_TM_OPLEV_TILT_HOR_OFFSET 1 0.000000000000000e+00 1
K1:VIS-PR3_TM_OPLEV_TILT_HOR_SW1S 1 4.000000000000000e+00 0xffffffff
K1:VIS-PR3_TM_OPLEV_TILT_HOR_SW2S 1 1.536000000000000e+03 0xffffffff
K1:VIS-PR3_TM_OPLEV_TILT_HOR_TRAMP 1 0.000000000000000e+00 1
K1:VIS-PR3_TM_OPLEV_TILT_MTRX_1_1 1 -1.000000000000000e+00 1
K1:VIS-PR3_TM_OPLEV_TILT_MTRX_1_2 1 -1.000000000000000e+00 1
K1:VIS-PR3_TM_OPLEV_TILT_MTRX_1_3 1 1.000000000000000e+00 1
K1:VIS-PR3_TM_OPLEV_TILT_MTRX_1_4 1 1.000000000000000e+00 1
K1:VIS-PR3_TM_OPLEV_TILT_MTRX_2_1 1 1.000000000000000e+00 1
K1:VIS-PR3_TM_OPLEV_TILT_MTRX_2_2 1 -1.000000000000000e+00 1
K1:VIS-PR3_TM_OPLEV_TILT_MTRX_2_3 1 -1.000000000000000e+00 1
K1:VIS-PR3_TM_OPLEV_TILT_MTRX_2_4 1 1.000000000000000e+00 1
K1:VIS-PR3_TM_OPLEV_TILT_MTRX_3_1 1 1.000000000000000e+00 1
K1:VIS-PR3_TM_OPLEV_TILT_MTRX_3_2 1 1.000000000000000e+00 1
K1:VIS-PR3_TM_OPLEV_TILT_MTRX_3_3 1 1.000000000000000e+00 1
K1:VIS-PR3_TM_OPLEV_TILT_MTRX_3_4 1 1.000000000000000e+00 1
K1:VIS-PR3_TM_OPLEV_TILT_MTRX_4_1 1 -1.000000000000000e+00 1
K1:VIS-PR3_TM_OPLEV_TILT_MTRX_4_2 1 1.000000000000000e+00 1
K1:VIS-PR3_TM_OPLEV_TILT_MTRX_4_3 1 -1.000000000000000e+00 1
K1:VIS-PR3_TM_OPLEV_TILT_MTRX_4_4 1 1.000000000000000e+00 1
K1:VIS-PR3_TM_OPLEV_TILT_SEG1_GAIN 1 -1.000000000000000e+00 1
K1:VIS-PR3_TM_OPLEV_TILT_SEG1_LIMIT 1 0.000000000000000e+00 1
K1:VIS-PR3_TM_OPLEV_TILT_SEG1_OFFSET 1 0.000000000000000e+00 1
K1:VIS-PR3_TM_OPLEV_TILT_SEG1_SW1S 1 4.000000000000000e+00 0xffffffff
K1:VIS-PR3_TM_OPLEV_TILT_SEG1_SW2S 1 1.556000000000000e+03 0xffffffff
K1:VIS-PR3_TM_OPLEV_TILT_SEG1_TRAMP 1 0.000000000000000e+00 1
K1:VIS-PR3_TM_OPLEV_TILT_SEG2_GAIN 1 -1.000000000000000e+00 1
K1:VIS-PR3_TM_OPLEV_TILT_SEG2_LIMIT 1 0.000000000000000e+00 1
K1:VIS-PR3_TM_OPLEV_TILT_SEG2_OFFSET 1 0.000000000000000e+00 1
K1:VIS-PR3_TM_OPLEV_TILT_SEG2_SW1S 1 4.000000000000000e+00 0xffffffff
K1:VIS-PR3_TM_OPLEV_TILT_SEG2_SW2S 1 1.556000000000000e+03 0xffffffff
K1:VIS-PR3_TM_OPLEV_TILT_SEG2_TRAMP 1 0.000000000000000e+00 1
K1:VIS-PR3_TM_OPLEV_TILT_SEG3_GAIN 1 -1.000000000000000e+00 1
K1:VIS-PR3_TM_OPLEV_TILT_SEG3_LIMIT 1 0.000000000000000e+00 1
K1:VIS-PR3_TM_OPLEV_TILT_SEG3_OFFSET 1 0.000000000000000e+00 1
K1:VIS-PR3_TM_OPLEV_TILT_SEG3_SW1S 1 4.000000000000000e+00 0xffffffff
K1:VIS-PR3_TM_OPLEV_TILT_SEG3_SW2S 1 1.556000000000000e+03 0xffffffff
K1:VIS-PR3_TM_OPLEV_TILT_SEG3_TRAMP 1 0.000000000000000e+00 1
K1:VIS-PR3_TM_OPLEV_TILT_SEG4_GAIN 1 -1.000000000000000e+00 1
K1:VIS-PR3_TM_OPLEV_TILT_SEG4_LIMIT 1 0.000000000000000e+00 1
K1:VIS-PR3_TM_OPLEV_TILT_SEG4_OFFSET 1 0.000000000000000e+00 1
K1:VIS-PR3_TM_OPLEV_TILT_SEG4_SW1S 1 4.000000000000000e+00 0xffffffff
K1:VIS-PR3_TM_OPLEV_TILT_SEG4_SW2S 1 1.556000000000000e+03 0xffffffff
K1:VIS-PR3_TM_OPLEV_TILT_SEG4_TRAMP 1 0.000000000000000e+00 1
K1:VIS-PR3_TM_OPLEV_TILT_SUM_GAIN 1 1.000000000000000e+00 1
K1:VIS-PR3_TM_OPLEV_TILT_SUM_LIMIT 1 0.000000000000000e+00 1
K1:VIS-PR3_TM_OPLEV_TILT_SUM_OFFSET 1 -9.000000000000000e+03 1
K1:VIS-PR3_TM_OPLEV_TILT_SUM_SW1S 1 4.000000000000000e+00 0xffffffff
K1:VIS-PR3_TM_OPLEV_TILT_SUM_SW2S 1 1.536000000000000e+03 0xffffffff
K1:VIS-PR3_TM_OPLEV_TILT_SUM_TRAMP 1 0.000000000000000e+00 1
K1:VIS-PR3_TM_OPLEV_TILT_VER_GAIN 1 2.995853372027622e+02 1
K1:VIS-PR3_TM_OPLEV_TILT_VER_LIMIT 1 0.000000000000000e+00 1
K1:VIS-PR3_TM_OPLEV_TILT_VER_OFFSET 1 0.000000000000000e+00 1
K1:VIS-PR3_TM_OPLEV_TILT_VER_SW1S 1 4.000000000000000e+00 0xffffffff
K1:VIS-PR3_TM_OPLEV_TILT_VER_SW2S 1 1.536000000000000e+03 0xffffffff
K1:VIS-PR3_TM_OPLEV_TILT_VER_TRAMP 1 0.000000000000000e+00 1
K1:VIS-PR3_TM_OPTICALIGN_P_GAIN 1 1.000000000000000e+00 1
K1:VIS-PR3_TM_OPTICALIGN_P_LIMIT 1 0.000000000000000e+00 1
K1:VIS-PR3_TM_OPTICALIGN_P_OFFSET 1 0.000000000000000e+00 1
K1:VIS-PR3_TM_OPTICALIGN_P_SW1S 1 4.000000000000000e+00 0xffffffff
K1:VIS-PR3_TM_OPTICALIGN_P_SW2S 1 1.536000000000000e+03 0xffffffff
K1:VIS-PR3_TM_OPTICALIGN_P_TRAMP 1 0.000000000000000e+00 1
K1:VIS-PR3_TM_OPTICALIGN_Y_GAIN 1 1.000000000000000e+00 1
K1:VIS-PR3_TM_OPTICALIGN_Y_LIMIT 1 0.000000000000000e+00 1
K1:VIS-PR3_TM_OPTICALIGN_Y_OFFSET 1 0.000000000000000e+00 1
K1:VIS-PR3_TM_OPTICALIGN_Y_SW1S 1 4.000000000000000e+00 0xffffffff
K1:VIS-PR3_TM_OPTICALIGN_Y_SW2S 1 1.536000000000000e+03 0xffffffff
K1:VIS-PR3_TM_OPTICALIGN_Y_TRAMP 1 0.000000000000000e+00 1
K1:VIS-PR3_TM_SENSALIGN_1_1 1 1.000000000000000e+00 1
K1:VIS-PR3_TM_SENSALIGN_1_2 1 0.000000000000000e+00 1
K1:VIS-PR3_TM_SENSALIGN_1_3 1 0.000000000000000e+00 1
K1:VIS-PR3_TM_SENSALIGN_2_1 1 0.000000000000000e+00 1
K1:VIS-PR3_TM_SENSALIGN_2_2 1 1.000000000000000e+00 1
K1:VIS-PR3_TM_SENSALIGN_2_3 1 0.000000000000000e+00 1
K1:VIS-PR3_TM_SENSALIGN_3_1 1 0.000000000000000e+00 1
K1:VIS-PR3_TM_SENSALIGN_3_2 1 0.000000000000000e+00 1
K1:VIS-PR3_TM_SENSALIGN_3_3 1 1.000000000000000e+00 1
K1:VIS-PR3_TM_TEST_L_GAIN 1 0.000000000000000e+00 1
K1:VIS-PR3_TM_TEST_L_LIMIT 1 0.000000000000000e+00 1
K1:VIS-PR3_TM_TEST_L_OFFSET 1 1.000000000000000e+03 1
K1:VIS-PR3_TM_TEST_L_SW1S 1 4.000000000000000e+00 0xffffffff
K1:VIS-PR3_TM_TEST_L_SW2S 1 1.536000000000000e+03 0xffffffff
K1:VIS-PR3_TM_TEST_L_TRAMP 1 5.000000000000000e+00 1
K1:VIS-PR3_TM_TEST_P_GAIN 1 0.000000000000000e+00 1
K1:VIS-PR3_TM_TEST_P_LIMIT 1 0.000000000000000e+00 1
K1:VIS-PR3_TM_TEST_P_OFFSET 1 1.500000000000000e+03 1
K1:VIS-PR3_TM_TEST_P_SW1S 1 4.000000000000000e+00 0xffffffff
K1:VIS-PR3_TM_TEST_P_SW2S 1 1.536000000000000e+03 0xffffffff
K1:VIS-PR3_TM_TEST_P_TRAMP 1 5.000000000000000e+00 1
K1:VIS-PR3_TM_TEST_Y_GAIN 1 0.000000000000000e+00 1
K1:VIS-PR3_TM_TEST_Y_LIMIT 1 0.000000000000000e+00 1
K1:VIS-PR3_TM_TEST_Y_OFFSET 1 5.000000000000000e+02 1
K1:VIS-PR3_TM_TEST_Y_SW1S 1 4.000000000000000e+00 0xffffffff
K1:VIS-PR3_TM_TEST_Y_SW2S 1 1.536000000000000e+03 0xffffffff
K1:VIS-PR3_TM_TEST_Y_TRAMP 1 5.000000000000000e+00 1
K1:VIS-PR3_TM_WD_OPLEVAC_BANDLIM_LEN_SEG1_GAIN 1 1.000000000000000e+00 1
K1:VIS-PR3_TM_WD_OPLEVAC_BANDLIM_LEN_SEG1_LIMIT 1 0.000000000000000e+00 1
K1:VIS-PR3_TM_WD_OPLEVAC_BANDLIM_LEN_SEG1_OFFSET 1 0.000000000000000e+00 1
K1:VIS-PR3_TM_WD_OPLEVAC_BANDLIM_LEN_SEG1_SW1S 1 2.800000000000000e+01 0xffffffff
K1:VIS-PR3_TM_WD_OPLEVAC_BANDLIM_LEN_SEG1_SW2S 1 1.536000000000000e+03 0xffffffff
K1:VIS-PR3_TM_WD_OPLEVAC_BANDLIM_LEN_SEG1_TRAMP 1 0.000000000000000e+00 1
K1:VIS-PR3_TM_WD_OPLEVAC_BANDLIM_LEN_SEG2_GAIN 1 1.000000000000000e+00 1
K1:VIS-PR3_TM_WD_OPLEVAC_BANDLIM_LEN_SEG2_LIMIT 1 0.000000000000000e+00 1
K1:VIS-PR3_TM_WD_OPLEVAC_BANDLIM_LEN_SEG2_OFFSET 1 0.000000000000000e+00 1
K1:VIS-PR3_TM_WD_OPLEVAC_BANDLIM_LEN_SEG2_SW1S 1 2.800000000000000e+01 0xffffffff
K1:VIS-PR3_TM_WD_OPLEVAC_BANDLIM_LEN_SEG2_SW2S 1 1.536000000000000e+03 0xffffffff
K1:VIS-PR3_TM_WD_OPLEVAC_BANDLIM_LEN_SEG2_TRAMP 1 0.000000000000000e+00 1
K1:VIS-PR3_TM_WD_OPLEVAC_BANDLIM_LEN_SEG3_GAIN 1 1.000000000000000e+00 1
K1:VIS-PR3_TM_WD_OPLEVAC_BANDLIM_LEN_SEG3_LIMIT 1 0.000000000000000e+00 1
K1:VIS-PR3_TM_WD_OPLEVAC_BANDLIM_LEN_SEG3_OFFSET 1 0.000000000000000e+00 1
K1:VIS-PR3_TM_WD_OPLEVAC_BANDLIM_LEN_SEG3_SW1S 1 2.800000000000000e+01 0xffffffff
K1:VIS-PR3_TM_WD_OPLEVAC_BANDLIM_LEN_SEG3_SW2S 1 1.536000000000000e+03 0xffffffff
K1:VIS-PR3_TM_WD_OPLEVAC_BANDLIM_LEN_SEG3_TRAMP 1 0.000000000000000e+00 1
K1:VIS-PR3_TM_WD_OPLEVAC_BANDLIM_LEN_SEG4_GAIN 1 1.000000000000000e+00 1
K1:VIS-PR3_TM_WD_OPLEVAC_BANDLIM_LEN_SEG4_LIMIT 1 0.000000000000000e+00 1
K1:VIS-PR3_TM_WD_OPLEVAC_BANDLIM_LEN_SEG4_OFFSET 1 0.000000000000000e+00 1
K1:VIS-PR3_TM_WD_OPLEVAC_BANDLIM_LEN_SEG4_SW1S 1 2.800000000000000e+01 0xffffffff
K1:VIS-PR3_TM_WD_OPLEVAC_BANDLIM_LEN_SEG4_SW2S 1 1.536000000000000e+03 0xffffffff
K1:VIS-PR3_TM_WD_OPLEVAC_BANDLIM_LEN_SEG4_TRAMP 1 0.000000000000000e+00 1
K1:VIS-PR3_TM_WD_OPLEVAC_BANDLIM_TILT_SEG1_GAIN 1 1.000000000000000e+00 1
K1:VIS-PR3_TM_WD_OPLEVAC_BANDLIM_TILT_SEG1_LIMIT 1 0.000000000000000e+00 1
K1:VIS-PR3_TM_WD_OPLEVAC_BANDLIM_TILT_SEG1_OFFSET 1 0.000000000000000e+00 1
K1:VIS-PR3_TM_WD_OPLEVAC_BANDLIM_TILT_SEG1_SW1S 1 2.800000000000000e+01 0xffffffff
K1:VIS-PR3_TM_WD_OPLEVAC_BANDLIM_TILT_SEG1_SW2S 1 1.536000000000000e+03 0xffffffff
K1:VIS-PR3_TM_WD_OPLEVAC_BANDLIM_TILT_SEG1_TRAMP 1 0.000000000000000e+00 1
K1:VIS-PR3_TM_WD_OPLEVAC_BANDLIM_TILT_SEG2_GAIN 1 1.000000000000000e+00 1
K1:VIS-PR3_TM_WD_OPLEVAC_BANDLIM_TILT_SEG2_LIMIT 1 0.000000000000000e+00 1
K1:VIS-PR3_TM_WD_OPLEVAC_BANDLIM_TILT_SEG2_OFFSET 1 0.000000000000000e+00 1
K1:VIS-PR3_TM_WD_OPLEVAC_BANDLIM_TILT_SEG2_SW1S 1 2.800000000000000e+01 0xffffffff
K1:VIS-PR3_TM_WD_OPLEVAC_BANDLIM_TILT_SEG2_SW2S 1 1.536000000000000e+03 0xffffffff
K1:VIS-PR3_TM_WD_OPLEVAC_BANDLIM_TILT_SEG2_TRAMP 1 0.000000000000000e+00 1
K1:VIS-PR3_TM_WD_OPLEVAC_BANDLIM_TILT_SEG3_GAIN 1 1.000000000000000e+00 1
K1:VIS-PR3_TM_WD_OPLEVAC_BANDLIM_TILT_SEG3_LIMIT 1 0.000000000000000e+00 1
K1:VIS-PR3_TM_WD_OPLEVAC_BANDLIM_TILT_SEG3_OFFSET 1 0.000000000000000e+00 1
K1:VIS-PR3_TM_WD_OPLEVAC_BANDLIM_TILT_SEG3_SW1S 1 2.800000000000000e+01 0xffffffff
K1:VIS-PR3_TM_WD_OPLEVAC_BANDLIM_TILT_SEG3_SW2S 1 1.536000000000000e+03 0xffffffff
K1:VIS-PR3_TM_WD_OPLEVAC_BANDLIM_TILT_SEG3_TRAMP 1 0.000000000000000e+00 1
K1:VIS-PR3_TM_WD_OPLEVAC_BANDLIM_TILT_SEG4_GAIN 1 1.000000000000000e+00 1
K1:VIS-PR3_TM_WD_OPLEVAC_BANDLIM_TILT_SEG4_LIMIT 1 0.000000000000000e+00 1
K1:VIS-PR3_TM_WD_OPLEVAC_BANDLIM_TILT_SEG4_OFFSET 1 0.000000000000000e+00 1
K1:VIS-PR3_TM_WD_OPLEVAC_BANDLIM_TILT_SEG4_SW1S 1 2.800000000000000e+01 0xffffffff
K1:VIS-PR3_TM_WD_OPLEVAC_BANDLIM_TILT_SEG4_SW2S 1 1.536000000000000e+03 0xffffffff
K1:VIS-PR3_TM_WD_OPLEVAC_BANDLIM_TILT_SEG4_TRAMP 1 0.000000000000000e+00 1
K1:VIS-PR3_TM_WD_OPLEVAC_RMS_MAX 1 3.000000000000000e+03 1
K1:FEC-51_DACDT_ENABLE 1 OFF 1
K1:VIS-PR3_BIO_ENCODE_IMH_WD_RESET 1 OFF 1
K1:VIS-PR3_BIO_ENCODE_IMV_WD_RESET 1 OFF 1
K1:VIS-PR3_BIO_ENCODE_TM_WD_RESET 1 OFF 1
K1:VIS-PR3_COMMISH_STATUS 1 ON 1
K1:VIS-PR3_IM_LKIN_EXC_SW 1 OFF 1
K1:VIS-PR3_IM_LOCK_OUTSW_L 1 OFF 1
K1:VIS-PR3_IM_LOCK_OUTSW_P 1 OFF 1
K1:VIS-PR3_IM_LOCK_OUTSW_Y 1 OFF 1
K1:VIS-PR3_IM_TEST_STATUS 1 OFF 1
K1:VIS-PR3_PAY_DACKILL_PANIC 1 NORMAL 1
K1:VIS-PR3_PAY_MASTERSWITCH 1 OFF 1
K1:VIS-PR3_TM_LKIN_EXC_SW 1 OFF 1
K1:VIS-PR3_TM_OPLEV_LEN_AWHITEN_SET1 1 OFF 1
K1:VIS-PR3_TM_OPLEV_LEN_AWHITEN_SET2 1 OFF 1
K1:VIS-PR3_TM_OPLEV_LEN_AWHITEN_SET3 1 OFF 1
K1:VIS-PR3_TM_OPLEV_TILT_AWHITEN_SET1 1 OFF 1
K1:VIS-PR3_TM_OPLEV_TILT_AWHITEN_SET2 1 OFF 1
K1:VIS-PR3_TM_OPLEV_TILT_AWHITEN_SET3 1 OFF 1
K1:VIS-PR3_COMMISH_MESSAGE 1 \0 0
K1:VIS-PR3_COMMISSIONING_ARG1 1 \0 0
K1:VIS-PR3_COMMISSIONING_ARG2 1 \0 1
K1:VIS-PR3_COMMISSIONING_ARG3 1 \0 1
K1:VIS-PR3_GUARD_BURT_SAVE 1 \0 1
K1:VIS-PR3_GUARD_COMMENT 1 \0 1
K1:VIS-PR3_GUARD_HOST 1 \0 1
K1:VIS-PR3_GUARD_REQUEST 1 \0 1
K1:VIS-PR3_GUARD_STATE 1 \0 1
K1:VIS-PR3_HEALTHCHECKED_DATE 1 \0 1
K1:VIS-PR3_INSTALLED_DATE_PAY 1 \0 1
